<mxfile host="app.diagrams.net" modified="2023-12-14T15:40:37.611Z" agent="Mozilla/5.0 (Windows NT 10.0; Win64; x64) AppleWebKit/537.36 (KHTML, like Gecko) Chrome/120.0.0.0 Safari/537.36" etag="JaHmVZXTpTJo9VzK51BQ" version="22.1.8" type="gitlab">
  <diagram name="Página-1" id="8E90vK-i3rbo4QKk4AHq">
    <mxGraphModel dx="954" dy="1888" grid="1" gridSize="10" guides="1" tooltips="1" connect="1" arrows="1" fold="1" page="1" pageScale="1" pageWidth="827" pageHeight="1169" math="0" shadow="0">
      <root>
        <mxCell id="0" />
        <mxCell id="1" parent="0" />
        <mxCell id="u1XdsaIY-dpvEbXPHsBr-1" value="Pacientes&lt;br&gt;Microservice" style="shape=umlLifeline;perimeter=lifelinePerimeter;whiteSpace=wrap;html=1;container=1;dropTarget=0;collapsible=0;recursiveResize=0;outlineConnect=0;portConstraint=eastwest;newEdgeStyle={&quot;edgeStyle&quot;:&quot;elbowEdgeStyle&quot;,&quot;elbow&quot;:&quot;vertical&quot;,&quot;curved&quot;:0,&quot;rounded&quot;:0};" parent="1" vertex="1">
          <mxGeometry x="370" y="40" width="100" height="380" as="geometry" />
        </mxCell>
        <mxCell id="u1XdsaIY-dpvEbXPHsBr-2" value="" style="html=1;points=[[0,0,0,0,5],[0,1,0,0,-5],[1,0,0,0,5],[1,1,0,0,-5]];perimeter=orthogonalPerimeter;outlineConnect=0;targetShapes=umlLifeline;portConstraint=eastwest;newEdgeStyle={&quot;curved&quot;:0,&quot;rounded&quot;:0};fillColor=default;" parent="u1XdsaIY-dpvEbXPHsBr-1" vertex="1">
          <mxGeometry x="45" y="110" width="10" height="230" as="geometry" />
        </mxCell>
        <mxCell id="u1XdsaIY-dpvEbXPHsBr-3" value="PosWin" style="shape=umlLifeline;perimeter=lifelinePerimeter;whiteSpace=wrap;html=1;container=1;dropTarget=0;collapsible=0;recursiveResize=0;outlineConnect=0;portConstraint=eastwest;newEdgeStyle={&quot;edgeStyle&quot;:&quot;elbowEdgeStyle&quot;,&quot;elbow&quot;:&quot;vertical&quot;,&quot;curved&quot;:0,&quot;rounded&quot;:0};" parent="1" vertex="1">
          <mxGeometry x="140" y="40" width="160" height="390" as="geometry" />
        </mxCell>
        <mxCell id="SOH_DiAUiM3GEnRDXguq-1" value="" style="html=1;points=[[0,0,0,0,5],[0,1,0,0,-5],[1,0,0,0,5],[1,1,0,0,-5]];perimeter=orthogonalPerimeter;outlineConnect=0;targetShapes=umlLifeline;portConstraint=eastwest;newEdgeStyle={&quot;curved&quot;:0,&quot;rounded&quot;:0};" parent="u1XdsaIY-dpvEbXPHsBr-3" vertex="1">
          <mxGeometry x="80.33" y="90" width="10" height="270" as="geometry" />
        </mxCell>
        <mxCell id="u1XdsaIY-dpvEbXPHsBr-7" value="&lt;b&gt;&lt;font style=&quot;font-size: 22px;&quot;&gt;Registro de Pacientes&lt;/font&gt;&lt;/b&gt;" style="text;html=1;align=center;verticalAlign=middle;resizable=0;points=[];autosize=1;strokeColor=none;fillColor=none;" parent="1" vertex="1">
          <mxGeometry x="10" y="-10" width="250" height="40" as="geometry" />
        </mxCell>
        <mxCell id="u1XdsaIY-dpvEbXPHsBr-8" value="&lt;span style=&quot;font-size: 22px;&quot;&gt;&lt;b&gt;Venta de&amp;nbsp;Optometría&lt;/b&gt;&lt;/span&gt;" style="text;html=1;align=center;verticalAlign=middle;resizable=0;points=[];autosize=1;strokeColor=none;fillColor=none;" parent="1" vertex="1">
          <mxGeometry x="50" y="500" width="240" height="40" as="geometry" />
        </mxCell>
        <mxCell id="fHNrr17nOYasJrSQ9eJ--1" value="" style="shape=umlLifeline;perimeter=lifelinePerimeter;whiteSpace=wrap;html=1;container=1;dropTarget=0;collapsible=0;recursiveResize=0;outlineConnect=0;portConstraint=eastwest;newEdgeStyle={&quot;curved&quot;:0,&quot;rounded&quot;:0};participant=umlActor;" parent="1" vertex="1">
          <mxGeometry x="20" y="50" width="20" height="380" as="geometry" />
        </mxCell>
        <mxCell id="l4ZSoBk6F52mBxzRY0DH-1" value="alt" style="shape=umlFrame;whiteSpace=wrap;html=1;pointerEvents=0;recursiveResize=0;container=1;collapsible=0;width=170;" parent="1" vertex="1">
          <mxGeometry x="20" y="230" width="460" height="170" as="geometry" />
        </mxCell>
        <mxCell id="l4ZSoBk6F52mBxzRY0DH-2" value="[paciente no existe]" style="text;html=1;" parent="l4ZSoBk6F52mBxzRY0DH-1" vertex="1">
          <mxGeometry width="100" height="20" relative="1" as="geometry">
            <mxPoint x="20" y="40" as="offset" />
          </mxGeometry>
        </mxCell>
        <mxCell id="SOH_DiAUiM3GEnRDXguq-4" value="registrar paciente" style="html=1;verticalAlign=bottom;labelBackgroundColor=none;endArrow=block;endFill=1;rounded=0;" parent="1" source="fHNrr17nOYasJrSQ9eJ--1" target="SOH_DiAUiM3GEnRDXguq-1" edge="1">
          <mxGeometry width="160" relative="1" as="geometry">
            <mxPoint x="65" y="310" as="sourcePoint" />
            <mxPoint x="225" y="310" as="targetPoint" />
            <Array as="points">
              <mxPoint x="110" y="310" />
            </Array>
          </mxGeometry>
        </mxCell>
        <mxCell id="SOH_DiAUiM3GEnRDXguq-5" value="registrar paciente" style="html=1;verticalAlign=bottom;endArrow=block;curved=0;rounded=0;" parent="1" source="SOH_DiAUiM3GEnRDXguq-1" target="u1XdsaIY-dpvEbXPHsBr-1" edge="1">
          <mxGeometry width="80" relative="1" as="geometry">
            <mxPoint x="210" y="340" as="sourcePoint" />
            <mxPoint x="450" y="350" as="targetPoint" />
            <Array as="points">
              <mxPoint x="270" y="330" />
            </Array>
          </mxGeometry>
        </mxCell>
        <mxCell id="SOH_DiAUiM3GEnRDXguq-6" value="return" style="html=1;verticalAlign=bottom;endArrow=open;dashed=1;endSize=8;curved=0;rounded=0;" parent="1" source="u1XdsaIY-dpvEbXPHsBr-1" target="SOH_DiAUiM3GEnRDXguq-1" edge="1">
          <mxGeometry relative="1" as="geometry">
            <mxPoint x="330" y="360" as="sourcePoint" />
            <mxPoint x="250" y="360" as="targetPoint" />
            <Array as="points">
              <mxPoint x="270" y="360" />
            </Array>
          </mxGeometry>
        </mxCell>
        <mxCell id="SOH_DiAUiM3GEnRDXguq-7" value="return" style="html=1;verticalAlign=bottom;endArrow=open;dashed=1;endSize=8;curved=0;rounded=0;" parent="1" source="SOH_DiAUiM3GEnRDXguq-1" target="fHNrr17nOYasJrSQ9eJ--1" edge="1">
          <mxGeometry relative="1" as="geometry">
            <mxPoint x="185" y="380" as="sourcePoint" />
            <mxPoint x="40" y="380" as="targetPoint" />
            <Array as="points">
              <mxPoint x="105" y="380" />
            </Array>
          </mxGeometry>
        </mxCell>
        <mxCell id="SOH_DiAUiM3GEnRDXguq-8" value="return" style="html=1;verticalAlign=bottom;endArrow=open;dashed=1;endSize=8;curved=0;rounded=0;" parent="1" source="u1XdsaIY-dpvEbXPHsBr-1" target="SOH_DiAUiM3GEnRDXguq-1" edge="1">
          <mxGeometry relative="1" as="geometry">
            <mxPoint x="340" y="190" as="sourcePoint" />
            <mxPoint x="220" y="190" as="targetPoint" />
            <Array as="points">
              <mxPoint x="270" y="190" />
            </Array>
          </mxGeometry>
        </mxCell>
        <mxCell id="SOH_DiAUiM3GEnRDXguq-10" value="buscar paciente" style="html=1;verticalAlign=bottom;endArrow=block;curved=0;rounded=0;" parent="1" source="fHNrr17nOYasJrSQ9eJ--1" target="SOH_DiAUiM3GEnRDXguq-1" edge="1">
          <mxGeometry width="80" relative="1" as="geometry">
            <mxPoint x="50" y="130" as="sourcePoint" />
            <mxPoint x="130" y="130" as="targetPoint" />
            <Array as="points">
              <mxPoint x="120" y="130" />
            </Array>
          </mxGeometry>
        </mxCell>
        <mxCell id="SOH_DiAUiM3GEnRDXguq-11" value="buscar paciente" style="html=1;verticalAlign=bottom;endArrow=block;curved=0;rounded=0;" parent="1" source="SOH_DiAUiM3GEnRDXguq-1" target="u1XdsaIY-dpvEbXPHsBr-1" edge="1">
          <mxGeometry width="80" relative="1" as="geometry">
            <mxPoint x="210" y="160" as="sourcePoint" />
            <mxPoint x="920" y="160" as="targetPoint" />
            <Array as="points">
              <mxPoint x="300" y="150" />
              <mxPoint x="320" y="150" />
            </Array>
          </mxGeometry>
        </mxCell>
        <mxCell id="SOH_DiAUiM3GEnRDXguq-12" value="Ventas parciales" style="shape=umlLifeline;perimeter=lifelinePerimeter;whiteSpace=wrap;html=1;container=1;dropTarget=0;collapsible=0;recursiveResize=0;outlineConnect=0;portConstraint=eastwest;newEdgeStyle={&quot;edgeStyle&quot;:&quot;elbowEdgeStyle&quot;,&quot;elbow&quot;:&quot;vertical&quot;,&quot;curved&quot;:0,&quot;rounded&quot;:0};" parent="1" vertex="1">
          <mxGeometry x="300" y="560" width="100" height="380" as="geometry" />
        </mxCell>
        <mxCell id="SOH_DiAUiM3GEnRDXguq-13" value="" style="html=1;points=[[0,0,0,0,5],[0,1,0,0,-5],[1,0,0,0,5],[1,1,0,0,-5]];perimeter=orthogonalPerimeter;outlineConnect=0;targetShapes=umlLifeline;portConstraint=eastwest;newEdgeStyle={&quot;curved&quot;:0,&quot;rounded&quot;:0};fillColor=default;" parent="SOH_DiAUiM3GEnRDXguq-12" vertex="1">
          <mxGeometry x="45" y="80" width="10" height="250" as="geometry" />
        </mxCell>
        <mxCell id="SOH_DiAUiM3GEnRDXguq-14" value="PosWin" style="shape=umlLifeline;perimeter=lifelinePerimeter;whiteSpace=wrap;html=1;container=1;dropTarget=0;collapsible=0;recursiveResize=0;outlineConnect=0;portConstraint=eastwest;newEdgeStyle={&quot;edgeStyle&quot;:&quot;elbowEdgeStyle&quot;,&quot;elbow&quot;:&quot;vertical&quot;,&quot;curved&quot;:0,&quot;rounded&quot;:0};" parent="1" vertex="1">
          <mxGeometry x="160" y="560" width="100" height="380" as="geometry" />
        </mxCell>
        <mxCell id="SOH_DiAUiM3GEnRDXguq-15" value="" style="html=1;points=[[0,0,0,0,5],[0,1,0,0,-5],[1,0,0,0,5],[1,1,0,0,-5]];perimeter=orthogonalPerimeter;outlineConnect=0;targetShapes=umlLifeline;portConstraint=eastwest;newEdgeStyle={&quot;curved&quot;:0,&quot;rounded&quot;:0};" parent="SOH_DiAUiM3GEnRDXguq-14" vertex="1">
          <mxGeometry x="45" y="80" width="10" height="250" as="geometry" />
        </mxCell>
        <mxCell id="sGbdRasGGZ6pOaMvXARc-57" value="" style="shape=umlLifeline;perimeter=lifelinePerimeter;whiteSpace=wrap;html=1;container=1;dropTarget=0;collapsible=0;recursiveResize=0;outlineConnect=0;portConstraint=eastwest;newEdgeStyle={&quot;curved&quot;:0,&quot;rounded&quot;:0};participant=umlActor;" parent="1" vertex="1">
          <mxGeometry x="34" y="560" width="20" height="380" as="geometry" />
        </mxCell>
        <mxCell id="SOH_DiAUiM3GEnRDXguq-27" value="Lab" style="shape=umlLifeline;perimeter=lifelinePerimeter;whiteSpace=wrap;html=1;container=1;dropTarget=0;collapsible=0;recursiveResize=0;outlineConnect=0;portConstraint=eastwest;newEdgeStyle={&quot;edgeStyle&quot;:&quot;elbowEdgeStyle&quot;,&quot;elbow&quot;:&quot;vertical&quot;,&quot;curved&quot;:0,&quot;rounded&quot;:0};" parent="1" vertex="1">
          <mxGeometry x="440" y="560" width="100" height="380" as="geometry" />
        </mxCell>
        <mxCell id="SOH_DiAUiM3GEnRDXguq-28" value="" style="html=1;points=[[0,0,0,0,5],[0,1,0,0,-5],[1,0,0,0,5],[1,1,0,0,-5]];perimeter=orthogonalPerimeter;outlineConnect=0;targetShapes=umlLifeline;portConstraint=eastwest;newEdgeStyle={&quot;curved&quot;:0,&quot;rounded&quot;:0};fillColor=default;" parent="SOH_DiAUiM3GEnRDXguq-27" vertex="1">
          <mxGeometry x="45" y="80" width="10" height="250" as="geometry" />
        </mxCell>
        <mxCell id="SOH_DiAUiM3GEnRDXguq-29" value="&lt;span style=&quot;font-size: 22px;&quot;&gt;&lt;b&gt;Registro de pago&lt;/b&gt;&lt;/span&gt;" style="text;html=1;align=center;verticalAlign=middle;resizable=0;points=[];autosize=1;strokeColor=none;fillColor=none;" parent="1" vertex="1">
          <mxGeometry x="70" y="1030" width="200" height="40" as="geometry" />
        </mxCell>
        <mxCell id="SOH_DiAUiM3GEnRDXguq-30" value="Centrales" style="shape=umlLifeline;perimeter=lifelinePerimeter;whiteSpace=wrap;html=1;container=1;dropTarget=0;collapsible=0;recursiveResize=0;outlineConnect=0;portConstraint=eastwest;newEdgeStyle={&quot;edgeStyle&quot;:&quot;elbowEdgeStyle&quot;,&quot;elbow&quot;:&quot;vertical&quot;,&quot;curved&quot;:0,&quot;rounded&quot;:0};" parent="1" vertex="1">
          <mxGeometry x="580" y="560" width="100" height="380" as="geometry" />
        </mxCell>
        <mxCell id="SOH_DiAUiM3GEnRDXguq-31" value="" style="html=1;points=[[0,0,0,0,5],[0,1,0,0,-5],[1,0,0,0,5],[1,1,0,0,-5]];perimeter=orthogonalPerimeter;outlineConnect=0;targetShapes=umlLifeline;portConstraint=eastwest;newEdgeStyle={&quot;curved&quot;:0,&quot;rounded&quot;:0};fillColor=default;" parent="SOH_DiAUiM3GEnRDXguq-30" vertex="1">
          <mxGeometry x="45" y="80" width="10" height="250" as="geometry" />
        </mxCell>
        <mxCell id="SlbEd4wrDfKaUI1D6UiQ-19" value="Pacientes&lt;br&gt;Microservice" style="shape=umlLifeline;perimeter=lifelinePerimeter;whiteSpace=wrap;html=1;container=1;dropTarget=0;collapsible=0;recursiveResize=0;outlineConnect=0;portConstraint=eastwest;newEdgeStyle={&quot;edgeStyle&quot;:&quot;elbowEdgeStyle&quot;,&quot;elbow&quot;:&quot;vertical&quot;,&quot;curved&quot;:0,&quot;rounded&quot;:0};" parent="1" vertex="1">
          <mxGeometry x="780" y="1440" width="100" height="380" as="geometry" />
        </mxCell>
        <mxCell id="SlbEd4wrDfKaUI1D6UiQ-20" value="" style="html=1;points=[[0,0,0,0,5],[0,1,0,0,-5],[1,0,0,0,5],[1,1,0,0,-5]];perimeter=orthogonalPerimeter;outlineConnect=0;targetShapes=umlLifeline;portConstraint=eastwest;newEdgeStyle={&quot;curved&quot;:0,&quot;rounded&quot;:0};fillColor=default;" parent="SlbEd4wrDfKaUI1D6UiQ-19" vertex="1">
          <mxGeometry x="45" y="70" width="10" height="290" as="geometry" />
        </mxCell>
        <mxCell id="SlbEd4wrDfKaUI1D6UiQ-21" value="PosWin&lt;br&gt;&lt;div style=&quot;font-family: &amp;quot;JetBrains Mono&amp;quot;, monospace; font-size: 6px;&quot;&gt;&lt;br&gt;&lt;/div&gt;" style="shape=umlLifeline;perimeter=lifelinePerimeter;whiteSpace=wrap;html=1;container=1;dropTarget=0;collapsible=0;recursiveResize=0;outlineConnect=0;portConstraint=eastwest;newEdgeStyle={&quot;edgeStyle&quot;:&quot;elbowEdgeStyle&quot;,&quot;elbow&quot;:&quot;vertical&quot;,&quot;curved&quot;:0,&quot;rounded&quot;:0};" parent="1" vertex="1">
          <mxGeometry x="140.33" y="1440" width="200" height="390" as="geometry" />
        </mxCell>
        <mxCell id="SlbEd4wrDfKaUI1D6UiQ-22" value="" style="html=1;points=[[0,0,0,0,5],[0,1,0,0,-5],[1,0,0,0,5],[1,1,0,0,-5]];perimeter=orthogonalPerimeter;outlineConnect=0;targetShapes=umlLifeline;portConstraint=eastwest;newEdgeStyle={&quot;curved&quot;:0,&quot;rounded&quot;:0};" parent="SlbEd4wrDfKaUI1D6UiQ-21" vertex="1">
          <mxGeometry x="95" y="90" width="10" height="270" as="geometry" />
        </mxCell>
        <mxCell id="SlbEd4wrDfKaUI1D6UiQ-23" value="&lt;b&gt;&lt;font style=&quot;font-size: 22px;&quot;&gt;Registro de Pacientes&lt;br&gt;Pantallas Actuales&lt;br&gt;&lt;/font&gt;&lt;/b&gt;" style="text;html=1;align=center;verticalAlign=middle;resizable=0;points=[];autosize=1;strokeColor=none;fillColor=none;" parent="1" vertex="1">
          <mxGeometry x="10" y="1365" width="250" height="70" as="geometry" />
        </mxCell>
        <mxCell id="SlbEd4wrDfKaUI1D6UiQ-24" value="" style="shape=umlLifeline;perimeter=lifelinePerimeter;whiteSpace=wrap;html=1;container=1;dropTarget=0;collapsible=0;recursiveResize=0;outlineConnect=0;portConstraint=eastwest;newEdgeStyle={&quot;curved&quot;:0,&quot;rounded&quot;:0};participant=umlActor;" parent="1" vertex="1">
          <mxGeometry x="30" y="1450" width="20" height="380" as="geometry" />
        </mxCell>
        <mxCell id="SlbEd4wrDfKaUI1D6UiQ-25" value="alt" style="shape=umlFrame;whiteSpace=wrap;html=1;pointerEvents=0;recursiveResize=0;container=1;collapsible=0;width=170;" parent="1" vertex="1">
          <mxGeometry y="1635" width="480" height="180" as="geometry" />
        </mxCell>
        <mxCell id="SlbEd4wrDfKaUI1D6UiQ-26" value="[paciente no existe]" style="text;html=1;" parent="SlbEd4wrDfKaUI1D6UiQ-25" vertex="1">
          <mxGeometry width="100" height="20" relative="1" as="geometry">
            <mxPoint x="20" y="40" as="offset" />
          </mxGeometry>
        </mxCell>
        <mxCell id="bVuoukiCrdBaACWzmKuW-4" value="&lt;font style=&quot;font-size: 6px; background-color: rgb(255, 206, 159);&quot;&gt;PatientDetailViewModel.&lt;span style=&quot;font-family: &amp;quot;JetBrains Mono&amp;quot;, monospace;&quot;&gt;ProcessPatient&lt;/span&gt;&lt;/font&gt;&lt;div style=&quot;border-color: var(--border-color); font-family: &amp;quot;JetBrains Mono&amp;quot;, monospace; font-style: normal; font-variant-ligatures: normal; font-variant-caps: normal; font-weight: 400; letter-spacing: normal; orphans: 2; text-align: center; text-indent: 0px; text-transform: none; widows: 2; word-spacing: 0px; -webkit-text-stroke-width: 0px; text-decoration-thickness: initial; text-decoration-style: initial; text-decoration-color: initial; font-size: 6px;&quot;&gt;&lt;font style=&quot;font-size: 6px; background-color: rgb(255, 206, 159);&quot;&gt;IServiceCentralAdapter.PatientSOMUpdate&lt;/font&gt;&lt;/div&gt;" style="text;whiteSpace=wrap;html=1;" parent="SlbEd4wrDfKaUI1D6UiQ-25" vertex="1">
          <mxGeometry x="170" y="25" width="160" height="50" as="geometry" />
        </mxCell>
        <mxCell id="SlbEd4wrDfKaUI1D6UiQ-29" value="return" style="html=1;verticalAlign=bottom;endArrow=open;dashed=1;endSize=8;curved=0;rounded=0;" parent="SlbEd4wrDfKaUI1D6UiQ-25" edge="1">
          <mxGeometry relative="1" as="geometry">
            <mxPoint x="459.5" y="135" as="sourcePoint" />
            <mxPoint x="245.33000000000004" y="135" as="targetPoint" />
            <Array as="points">
              <mxPoint x="280" y="135" />
            </Array>
          </mxGeometry>
        </mxCell>
        <mxCell id="SlbEd4wrDfKaUI1D6UiQ-27" value="registrar paciente" style="html=1;verticalAlign=bottom;labelBackgroundColor=none;endArrow=block;endFill=1;rounded=0;" parent="1" source="SlbEd4wrDfKaUI1D6UiQ-24" target="SlbEd4wrDfKaUI1D6UiQ-22" edge="1">
          <mxGeometry width="160" relative="1" as="geometry">
            <mxPoint x="75" y="1710" as="sourcePoint" />
            <mxPoint x="235" y="1710" as="targetPoint" />
            <Array as="points">
              <mxPoint x="120" y="1710" />
            </Array>
          </mxGeometry>
        </mxCell>
        <mxCell id="SlbEd4wrDfKaUI1D6UiQ-28" value="registrar paciente" style="html=1;verticalAlign=bottom;endArrow=block;curved=0;rounded=0;" parent="1" source="SlbEd4wrDfKaUI1D6UiQ-22" target="SlbEd4wrDfKaUI1D6UiQ-36" edge="1">
          <mxGeometry width="80" relative="1" as="geometry">
            <mxPoint x="220" y="1740" as="sourcePoint" />
            <mxPoint x="460" y="1750" as="targetPoint" />
            <Array as="points">
              <mxPoint x="280" y="1730" />
            </Array>
          </mxGeometry>
        </mxCell>
        <mxCell id="SlbEd4wrDfKaUI1D6UiQ-30" value="return" style="html=1;verticalAlign=bottom;endArrow=open;dashed=1;endSize=8;curved=0;rounded=0;" parent="1" source="SlbEd4wrDfKaUI1D6UiQ-22" target="SlbEd4wrDfKaUI1D6UiQ-24" edge="1">
          <mxGeometry relative="1" as="geometry">
            <mxPoint x="195" y="1780" as="sourcePoint" />
            <mxPoint x="50" y="1780" as="targetPoint" />
            <Array as="points">
              <mxPoint x="115" y="1780" />
            </Array>
          </mxGeometry>
        </mxCell>
        <mxCell id="SlbEd4wrDfKaUI1D6UiQ-31" value="return" style="html=1;verticalAlign=bottom;endArrow=open;dashed=1;endSize=8;curved=0;rounded=0;" parent="1" edge="1">
          <mxGeometry relative="1" as="geometry">
            <mxPoint x="457.0800000000002" y="1610" as="sourcePoint" />
            <mxPoint x="242.90999999999994" y="1610" as="targetPoint" />
            <Array as="points">
              <mxPoint x="277.58" y="1610" />
            </Array>
          </mxGeometry>
        </mxCell>
        <mxCell id="SlbEd4wrDfKaUI1D6UiQ-33" value="buscar paciente" style="html=1;verticalAlign=bottom;endArrow=block;curved=0;rounded=0;" parent="1" source="SlbEd4wrDfKaUI1D6UiQ-24" target="SlbEd4wrDfKaUI1D6UiQ-22" edge="1">
          <mxGeometry width="80" relative="1" as="geometry">
            <mxPoint x="60" y="1530" as="sourcePoint" />
            <mxPoint x="140" y="1530" as="targetPoint" />
            <Array as="points">
              <mxPoint x="130" y="1530" />
            </Array>
          </mxGeometry>
        </mxCell>
        <mxCell id="SlbEd4wrDfKaUI1D6UiQ-34" value="buscar paciente" style="html=1;verticalAlign=bottom;endArrow=block;curved=0;rounded=0;" parent="1" source="SlbEd4wrDfKaUI1D6UiQ-22" target="SlbEd4wrDfKaUI1D6UiQ-35" edge="1">
          <mxGeometry width="80" relative="1" as="geometry">
            <mxPoint x="220" y="1560" as="sourcePoint" />
            <mxPoint x="930" y="1560" as="targetPoint" />
            <Array as="points">
              <mxPoint x="310" y="1550" />
              <mxPoint x="330" y="1550" />
            </Array>
          </mxGeometry>
        </mxCell>
        <mxCell id="SlbEd4wrDfKaUI1D6UiQ-35" value="PosService&lt;br&gt;&lt;div style=&quot;font-family: &amp;quot;JetBrains Mono&amp;quot;, monospace; font-size: 6px;&quot;&gt;&lt;div style=&quot;&quot;&gt;&lt;div style=&quot;&quot;&gt;&lt;div style=&quot;&quot;&gt;&lt;br&gt;&lt;/div&gt;&lt;/div&gt;&lt;/div&gt;&lt;/div&gt;" style="shape=umlLifeline;perimeter=lifelinePerimeter;whiteSpace=wrap;html=1;container=1;dropTarget=0;collapsible=0;recursiveResize=0;outlineConnect=0;portConstraint=eastwest;newEdgeStyle={&quot;edgeStyle&quot;:&quot;elbowEdgeStyle&quot;,&quot;elbow&quot;:&quot;vertical&quot;,&quot;curved&quot;:0,&quot;rounded&quot;:0};" parent="1" vertex="1">
          <mxGeometry x="360" y="1440" width="200" height="390" as="geometry" />
        </mxCell>
        <mxCell id="SlbEd4wrDfKaUI1D6UiQ-36" value="" style="html=1;points=[[0,0,0,0,5],[0,1,0,0,-5],[1,0,0,0,5],[1,1,0,0,-5]];perimeter=orthogonalPerimeter;outlineConnect=0;targetShapes=umlLifeline;portConstraint=eastwest;newEdgeStyle={&quot;curved&quot;:0,&quot;rounded&quot;:0};" parent="SlbEd4wrDfKaUI1D6UiQ-35" vertex="1">
          <mxGeometry x="95" y="90" width="10" height="270" as="geometry" />
        </mxCell>
        <mxCell id="SOH_DiAUiM3GEnRDXguq-9" value="return" style="html=1;verticalAlign=bottom;endArrow=open;dashed=1;endSize=8;curved=0;rounded=0;" parent="1" source="SOH_DiAUiM3GEnRDXguq-1" target="fHNrr17nOYasJrSQ9eJ--1" edge="1">
          <mxGeometry relative="1" as="geometry">
            <mxPoint x="135.32999999999998" y="210" as="sourcePoint" />
            <mxPoint x="-20.003333333333273" y="210" as="targetPoint" />
            <Array as="points">
              <mxPoint x="55.33" y="210" />
              <mxPoint x="30" y="210" />
            </Array>
          </mxGeometry>
        </mxCell>
        <mxCell id="SlbEd4wrDfKaUI1D6UiQ-32" value="return" style="html=1;verticalAlign=bottom;endArrow=open;dashed=1;endSize=8;curved=0;rounded=0;" parent="1" source="SlbEd4wrDfKaUI1D6UiQ-22" target="SlbEd4wrDfKaUI1D6UiQ-24" edge="1">
          <mxGeometry relative="1" as="geometry">
            <mxPoint x="145.33" y="1610" as="sourcePoint" />
            <mxPoint x="-10.003333333333245" y="1610" as="targetPoint" />
            <Array as="points">
              <mxPoint x="65.33" y="1610" />
            </Array>
          </mxGeometry>
        </mxCell>
        <mxCell id="SlbEd4wrDfKaUI1D6UiQ-37" value="&lt;font style=&quot;font-size: 7px;&quot;&gt;Teniendo en cuenta que el flujo iniciara hasta el momento de pagar (Boton PAGO PARCIALIDAD),&lt;br&gt;&amp;nbsp;se tendría que hacer el registro del paciente en la db del microservicio&lt;br&gt;&amp;nbsp;al momento de finalizar el primer pago de venta con parcialidad.&lt;br&gt;El Paciente ya lo tendriamos&lt;br&gt;&lt;/font&gt;" style="text;html=1;align=center;verticalAlign=middle;resizable=0;points=[];autosize=1;strokeColor=#d6b656;fillColor=#fff2cc;" parent="1" vertex="1">
          <mxGeometry x="310" y="1365" width="330" height="70" as="geometry" />
        </mxCell>
        <mxCell id="SlbEd4wrDfKaUI1D6UiQ-56" value="Pacientes&lt;br&gt;Microservice&lt;br&gt;" style="shape=umlLifeline;perimeter=lifelinePerimeter;whiteSpace=wrap;html=1;container=1;dropTarget=0;collapsible=0;recursiveResize=0;outlineConnect=0;portConstraint=eastwest;newEdgeStyle={&quot;edgeStyle&quot;:&quot;elbowEdgeStyle&quot;,&quot;elbow&quot;:&quot;vertical&quot;,&quot;curved&quot;:0,&quot;rounded&quot;:0};size=40;" parent="1" vertex="1">
          <mxGeometry x="610" y="1948" width="120" height="691" as="geometry" />
        </mxCell>
        <mxCell id="SlbEd4wrDfKaUI1D6UiQ-57" value="" style="html=1;points=[[0,0,0,0,5],[0,1,0,0,-5],[1,0,0,0,5],[1,1,0,0,-5]];perimeter=orthogonalPerimeter;outlineConnect=0;targetShapes=umlLifeline;portConstraint=eastwest;newEdgeStyle={&quot;curved&quot;:0,&quot;rounded&quot;:0};fillColor=default;" parent="SlbEd4wrDfKaUI1D6UiQ-56" vertex="1">
          <mxGeometry x="55" y="80" width="10" height="601" as="geometry" />
        </mxCell>
        <mxCell id="SlbEd4wrDfKaUI1D6UiQ-58" value="PosWin&lt;br&gt;&lt;div style=&quot;font-family: &amp;quot;JetBrains Mono&amp;quot;, monospace; font-size: 6px;&quot;&gt;&lt;br&gt;&lt;/div&gt;" style="shape=umlLifeline;perimeter=lifelinePerimeter;whiteSpace=wrap;html=1;container=1;dropTarget=0;collapsible=0;recursiveResize=0;outlineConnect=0;portConstraint=eastwest;newEdgeStyle={&quot;edgeStyle&quot;:&quot;elbowEdgeStyle&quot;,&quot;elbow&quot;:&quot;vertical&quot;,&quot;curved&quot;:0,&quot;rounded&quot;:0};" parent="1" vertex="1">
          <mxGeometry x="150.33" y="1948" width="200" height="692" as="geometry" />
        </mxCell>
        <mxCell id="SlbEd4wrDfKaUI1D6UiQ-59" value="" style="html=1;points=[[0,0,0,0,5],[0,1,0,0,-5],[1,0,0,0,5],[1,1,0,0,-5]];perimeter=orthogonalPerimeter;outlineConnect=0;targetShapes=umlLifeline;portConstraint=eastwest;newEdgeStyle={&quot;curved&quot;:0,&quot;rounded&quot;:0};" parent="SlbEd4wrDfKaUI1D6UiQ-58" vertex="1">
          <mxGeometry x="95" y="90" width="10" height="580" as="geometry" />
        </mxCell>
        <mxCell id="SlbEd4wrDfKaUI1D6UiQ-60" value="&lt;b&gt;&lt;font style=&quot;font-size: 22px;&quot;&gt;Registro de Pacientes&lt;br&gt;Flujo Propuesto&lt;br&gt;&lt;/font&gt;&lt;/b&gt;" style="text;html=1;align=center;verticalAlign=middle;resizable=0;points=[];autosize=1;strokeColor=none;fillColor=none;" parent="1" vertex="1">
          <mxGeometry x="20" y="1873" width="250" height="70" as="geometry" />
        </mxCell>
        <mxCell id="SlbEd4wrDfKaUI1D6UiQ-61" value="" style="shape=umlLifeline;perimeter=lifelinePerimeter;whiteSpace=wrap;html=1;container=1;dropTarget=0;collapsible=0;recursiveResize=0;outlineConnect=0;portConstraint=eastwest;newEdgeStyle={&quot;curved&quot;:0,&quot;rounded&quot;:0};participant=umlActor;" parent="1" vertex="1">
          <mxGeometry x="40" y="1958" width="20" height="682" as="geometry" />
        </mxCell>
        <mxCell id="SlbEd4wrDfKaUI1D6UiQ-62" value="alt" style="shape=umlFrame;whiteSpace=wrap;html=1;pointerEvents=0;recursiveResize=0;container=1;collapsible=0;width=170;" parent="1" vertex="1">
          <mxGeometry x="40" y="2330" width="700" height="180" as="geometry" />
        </mxCell>
        <mxCell id="SlbEd4wrDfKaUI1D6UiQ-63" value="[paciente no existe]" style="text;html=1;" parent="SlbEd4wrDfKaUI1D6UiQ-62" vertex="1">
          <mxGeometry width="100" height="20" relative="1" as="geometry">
            <mxPoint x="20" y="40" as="offset" />
          </mxGeometry>
        </mxCell>
        <mxCell id="SlbEd4wrDfKaUI1D6UiQ-64" value="registrar paciente" style="html=1;verticalAlign=bottom;labelBackgroundColor=none;endArrow=block;endFill=1;rounded=0;" parent="SlbEd4wrDfKaUI1D6UiQ-62" edge="1">
          <mxGeometry width="160" relative="1" as="geometry">
            <mxPoint x="9.99666666666674" y="80" as="sourcePoint" />
            <mxPoint x="205.65999999999994" y="80" as="targetPoint" />
            <Array as="points">
              <mxPoint x="90.33000000000001" y="80" />
            </Array>
          </mxGeometry>
        </mxCell>
        <mxCell id="SlbEd4wrDfKaUI1D6UiQ-67" value="return" style="html=1;verticalAlign=bottom;endArrow=open;dashed=1;endSize=8;curved=0;rounded=0;" parent="SlbEd4wrDfKaUI1D6UiQ-62" edge="1">
          <mxGeometry relative="1" as="geometry">
            <mxPoint x="205.32999999999993" y="130" as="sourcePoint" />
            <mxPoint x="9.666666666666742" y="130" as="targetPoint" />
            <Array as="points">
              <mxPoint x="85" y="130" />
            </Array>
          </mxGeometry>
        </mxCell>
        <mxCell id="Edmb4_Uyd93IGBK1POb5-5" value="&lt;span style=&quot;border-color: var(--border-color); color: rgb(0, 0, 0); font-family: &amp;quot;JetBrains Mono&amp;quot;, monospace; font-size: 6px; font-style: normal; font-variant-ligatures: normal; font-variant-caps: normal; font-weight: 400; letter-spacing: normal; orphans: 2; text-align: center; text-indent: 0px; text-transform: none; widows: 2; word-spacing: 0px; -webkit-text-stroke-width: 0px; text-decoration-thickness: initial; text-decoration-style: initial; text-decoration-color: initial; background-color: rgb(204, 255, 204);&quot;&gt;PatientPartialSearchViewModel.Store&lt;br style=&quot;border-color: var(--border-color);&quot;&gt;&lt;/span&gt;&lt;div style=&quot;border-color: var(--border-color); color: rgb(0, 0, 0); font-family: &amp;quot;JetBrains Mono&amp;quot;, monospace; font-size: 6px; font-style: normal; font-variant-ligatures: normal; font-variant-caps: normal; font-weight: 400; letter-spacing: normal; orphans: 2; text-align: center; text-indent: 0px; text-transform: none; widows: 2; word-spacing: 0px; -webkit-text-stroke-width: 0px; background-color: rgb(251, 251, 251); text-decoration-thickness: initial; text-decoration-style: initial; text-decoration-color: initial;&quot;&gt;&lt;span style=&quot;border-color: var(--border-color); background-color: rgb(204, 255, 204);&quot;&gt;PatientManager.Store&lt;/span&gt;&lt;/div&gt;" style="text;whiteSpace=wrap;html=1;" parent="SlbEd4wrDfKaUI1D6UiQ-62" vertex="1">
          <mxGeometry x="150.33" y="30" width="160" height="50" as="geometry" />
        </mxCell>
        <mxCell id="bVuoukiCrdBaACWzmKuW-9" value="&lt;span style=&quot;color: rgb(0, 0, 0); font-family: Helvetica; font-size: 8px; font-style: normal; font-variant-ligatures: normal; font-variant-caps: normal; font-weight: 400; letter-spacing: normal; orphans: 2; text-align: center; text-indent: 0px; text-transform: none; widows: 2; word-spacing: 0px; -webkit-text-stroke-width: 0px; background-color: rgb(204, 255, 204); text-decoration-thickness: initial; text-decoration-style: initial; text-decoration-color: initial; float: none; display: inline !important;&quot;&gt;PatientManager.store&lt;/span&gt;" style="text;whiteSpace=wrap;html=1;" parent="SlbEd4wrDfKaUI1D6UiQ-62" vertex="1">
          <mxGeometry x="590" y="40" width="100" height="40" as="geometry" />
        </mxCell>
        <mxCell id="SlbEd4wrDfKaUI1D6UiQ-68" value="return" style="html=1;verticalAlign=bottom;endArrow=open;dashed=1;endSize=8;curved=0;rounded=0;" parent="1" source="SlbEd4wrDfKaUI1D6UiQ-72" target="SlbEd4wrDfKaUI1D6UiQ-59" edge="1">
          <mxGeometry relative="1" as="geometry">
            <mxPoint x="470.0000000000002" y="2110" as="sourcePoint" />
            <mxPoint x="255.82999999999993" y="2110" as="targetPoint" />
            <Array as="points">
              <mxPoint x="360" y="2270" />
            </Array>
          </mxGeometry>
        </mxCell>
        <mxCell id="SlbEd4wrDfKaUI1D6UiQ-69" value="buscar paciente" style="html=1;verticalAlign=bottom;endArrow=block;curved=0;rounded=0;" parent="1" source="SlbEd4wrDfKaUI1D6UiQ-61" target="SlbEd4wrDfKaUI1D6UiQ-59" edge="1">
          <mxGeometry width="80" relative="1" as="geometry">
            <mxPoint x="70" y="2038" as="sourcePoint" />
            <mxPoint x="150" y="2038" as="targetPoint" />
            <Array as="points">
              <mxPoint x="140" y="2038" />
            </Array>
          </mxGeometry>
        </mxCell>
        <mxCell id="SlbEd4wrDfKaUI1D6UiQ-70" value="buscar paciente" style="html=1;verticalAlign=bottom;endArrow=block;curved=0;rounded=0;" parent="1" source="SlbEd4wrDfKaUI1D6UiQ-59" target="SlbEd4wrDfKaUI1D6UiQ-71" edge="1">
          <mxGeometry width="80" relative="1" as="geometry">
            <mxPoint x="230" y="2068" as="sourcePoint" />
            <mxPoint x="940" y="2068" as="targetPoint" />
            <Array as="points">
              <mxPoint x="320" y="2058" />
              <mxPoint x="340" y="2058" />
            </Array>
          </mxGeometry>
        </mxCell>
        <mxCell id="SlbEd4wrDfKaUI1D6UiQ-71" value="PosService&lt;br&gt;&lt;div style=&quot;font-family: &amp;quot;JetBrains Mono&amp;quot;, monospace; font-size: 6px;&quot;&gt;&lt;div style=&quot;&quot;&gt;&lt;div style=&quot;&quot;&gt;&lt;div style=&quot;&quot;&gt;&lt;br&gt;&lt;/div&gt;&lt;/div&gt;&lt;/div&gt;&lt;/div&gt;" style="shape=umlLifeline;perimeter=lifelinePerimeter;whiteSpace=wrap;html=1;container=1;dropTarget=0;collapsible=0;recursiveResize=0;outlineConnect=0;portConstraint=eastwest;newEdgeStyle={&quot;edgeStyle&quot;:&quot;elbowEdgeStyle&quot;,&quot;elbow&quot;:&quot;vertical&quot;,&quot;curved&quot;:0,&quot;rounded&quot;:0};" parent="1" vertex="1">
          <mxGeometry x="390" y="1948" width="160" height="692" as="geometry" />
        </mxCell>
        <mxCell id="SlbEd4wrDfKaUI1D6UiQ-72" value="" style="html=1;points=[[0,0,0,0,5],[0,1,0,0,-5],[1,0,0,0,5],[1,1,0,0,-5]];perimeter=orthogonalPerimeter;outlineConnect=0;targetShapes=umlLifeline;portConstraint=eastwest;newEdgeStyle={&quot;curved&quot;:0,&quot;rounded&quot;:0};" parent="SlbEd4wrDfKaUI1D6UiQ-71" vertex="1">
          <mxGeometry x="75" y="80" width="10" height="580" as="geometry" />
        </mxCell>
        <mxCell id="SlbEd4wrDfKaUI1D6UiQ-73" value="return" style="html=1;verticalAlign=bottom;endArrow=open;dashed=1;endSize=8;curved=0;rounded=0;" parent="1" source="SlbEd4wrDfKaUI1D6UiQ-59" target="SlbEd4wrDfKaUI1D6UiQ-61" edge="1">
          <mxGeometry relative="1" as="geometry">
            <mxPoint x="155.33" y="2118" as="sourcePoint" />
            <mxPoint x="-0.0033333333332450366" y="2118" as="targetPoint" />
            <Array as="points">
              <mxPoint x="150" y="2290" />
            </Array>
          </mxGeometry>
        </mxCell>
        <mxCell id="SlbEd4wrDfKaUI1D6UiQ-74" value="&lt;font style=&quot;font-size: 8px;&quot;&gt;El Microservicio será el nuevo manager de estos pacientes interactuando con el viejo&lt;br&gt;&lt;/font&gt;&amp;nbsp;" style="text;html=1;align=center;verticalAlign=middle;resizable=0;points=[];autosize=1;strokeColor=#d6b656;fillColor=#fff2cc;" parent="1" vertex="1">
          <mxGeometry x="305" y="1888" width="330" height="40" as="geometry" />
        </mxCell>
        <mxCell id="SlbEd4wrDfKaUI1D6UiQ-75" value="buscar paciente" style="html=1;verticalAlign=bottom;endArrow=block;curved=0;rounded=0;" parent="1" source="SlbEd4wrDfKaUI1D6UiQ-72" target="SlbEd4wrDfKaUI1D6UiQ-57" edge="1">
          <mxGeometry width="80" relative="1" as="geometry">
            <mxPoint x="470" y="2070" as="sourcePoint" />
            <mxPoint x="630" y="2068" as="targetPoint" />
            <Array as="points">
              <mxPoint x="510" y="2068" />
              <mxPoint x="530" y="2068" />
            </Array>
          </mxGeometry>
        </mxCell>
        <mxCell id="SlbEd4wrDfKaUI1D6UiQ-76" value="Pacientes&lt;br&gt;Service&lt;br&gt;&lt;font style=&quot;font-size: 6px;&quot;&gt;http://172.16.10.142:8082/pacientes/api/obtenerPaciente&lt;/font&gt;&lt;span style=&quot;background-color: rgb(204, 255, 204);&quot;&gt;&lt;font style=&quot;font-size: 8px;&quot;&gt;&lt;br&gt;&lt;/font&gt;&lt;/span&gt;" style="shape=umlLifeline;perimeter=lifelinePerimeter;whiteSpace=wrap;html=1;container=1;dropTarget=0;collapsible=0;recursiveResize=0;outlineConnect=0;portConstraint=eastwest;newEdgeStyle={&quot;edgeStyle&quot;:&quot;elbowEdgeStyle&quot;,&quot;elbow&quot;:&quot;vertical&quot;,&quot;curved&quot;:0,&quot;rounded&quot;:0};size=40;" parent="1" vertex="1">
          <mxGeometry x="780" y="1948" width="180" height="700" as="geometry" />
        </mxCell>
        <mxCell id="SlbEd4wrDfKaUI1D6UiQ-77" value="" style="html=1;points=[[0,0,0,0,5],[0,1,0,0,-5],[1,0,0,0,5],[1,1,0,0,-5]];perimeter=orthogonalPerimeter;outlineConnect=0;targetShapes=umlLifeline;portConstraint=eastwest;newEdgeStyle={&quot;curved&quot;:0,&quot;rounded&quot;:0};fillColor=default;" parent="SlbEd4wrDfKaUI1D6UiQ-76" vertex="1">
          <mxGeometry x="85" y="80" width="10" height="601" as="geometry" />
        </mxCell>
        <mxCell id="SlbEd4wrDfKaUI1D6UiQ-78" value="alt" style="shape=umlFrame;whiteSpace=wrap;html=1;pointerEvents=0;recursiveResize=0;container=1;collapsible=0;width=170;" parent="1" vertex="1">
          <mxGeometry x="640" y="2090" width="260" height="130" as="geometry" />
        </mxCell>
        <mxCell id="SlbEd4wrDfKaUI1D6UiQ-79" value="[paciente no existe en nuevo modelo]" style="text;html=1;" parent="SlbEd4wrDfKaUI1D6UiQ-78" vertex="1">
          <mxGeometry width="100" height="20" relative="1" as="geometry">
            <mxPoint x="20" y="40" as="offset" />
          </mxGeometry>
        </mxCell>
        <mxCell id="SlbEd4wrDfKaUI1D6UiQ-81" value="return" style="html=1;verticalAlign=bottom;endArrow=open;dashed=1;endSize=8;curved=0;rounded=0;" parent="1" source="SlbEd4wrDfKaUI1D6UiQ-57" target="SlbEd4wrDfKaUI1D6UiQ-72" edge="1">
          <mxGeometry relative="1" as="geometry">
            <mxPoint x="660" y="2280" as="sourcePoint" />
            <mxPoint x="470" y="2280" as="targetPoint" />
            <Array as="points">
              <mxPoint x="560" y="2250" />
            </Array>
          </mxGeometry>
        </mxCell>
        <mxCell id="SlbEd4wrDfKaUI1D6UiQ-66" value="return" style="html=1;verticalAlign=bottom;endArrow=open;dashed=1;endSize=8;curved=0;rounded=0;" parent="1" edge="1">
          <mxGeometry relative="1" as="geometry">
            <mxPoint x="666.8400000000003" y="2449.9999999999995" as="sourcePoint" />
            <mxPoint x="253.16999999999993" y="2450" as="targetPoint" />
            <Array as="points">
              <mxPoint x="287.84" y="2450" />
            </Array>
          </mxGeometry>
        </mxCell>
        <mxCell id="SlbEd4wrDfKaUI1D6UiQ-65" value="registrar paciente" style="html=1;verticalAlign=bottom;endArrow=block;curved=0;rounded=0;" parent="1" source="SlbEd4wrDfKaUI1D6UiQ-58" target="SlbEd4wrDfKaUI1D6UiQ-57" edge="1">
          <mxGeometry width="80" relative="1" as="geometry">
            <mxPoint x="319.99999999999994" y="2419.58" as="sourcePoint" />
            <mxPoint x="660" y="2420" as="targetPoint" />
            <Array as="points">
              <mxPoint x="354.67" y="2419.58" />
            </Array>
          </mxGeometry>
        </mxCell>
        <mxCell id="SlbEd4wrDfKaUI1D6UiQ-82" value="Pacientes&lt;br&gt;Service&lt;br&gt;&lt;font style=&quot;font-size: 5px;&quot;&gt;http://172.16.10.142:8082/pacientes/api/obtenerPaciente&lt;/font&gt;" style="shape=umlLifeline;perimeter=lifelinePerimeter;whiteSpace=wrap;html=1;container=1;dropTarget=0;collapsible=0;recursiveResize=0;outlineConnect=0;portConstraint=eastwest;newEdgeStyle={&quot;edgeStyle&quot;:&quot;elbowEdgeStyle&quot;,&quot;elbow&quot;:&quot;vertical&quot;,&quot;curved&quot;:0,&quot;rounded&quot;:0};" parent="1" vertex="1">
          <mxGeometry x="595" y="1440" width="150" height="380" as="geometry" />
        </mxCell>
        <mxCell id="SlbEd4wrDfKaUI1D6UiQ-83" value="" style="html=1;points=[[0,0,0,0,5],[0,1,0,0,-5],[1,0,0,0,5],[1,1,0,0,-5]];perimeter=orthogonalPerimeter;outlineConnect=0;targetShapes=umlLifeline;portConstraint=eastwest;newEdgeStyle={&quot;curved&quot;:0,&quot;rounded&quot;:0};fillColor=default;" parent="SlbEd4wrDfKaUI1D6UiQ-82" vertex="1">
          <mxGeometry x="70" y="60" width="10" height="290" as="geometry" />
        </mxCell>
        <mxCell id="SlbEd4wrDfKaUI1D6UiQ-84" style="edgeStyle=orthogonalEdgeStyle;rounded=0;orthogonalLoop=1;jettySize=auto;html=1;curved=0;" parent="1" source="SlbEd4wrDfKaUI1D6UiQ-36" target="SlbEd4wrDfKaUI1D6UiQ-82" edge="1">
          <mxGeometry relative="1" as="geometry">
            <Array as="points">
              <mxPoint x="570" y="1560" />
              <mxPoint x="570" y="1560" />
            </Array>
          </mxGeometry>
        </mxCell>
        <mxCell id="SlbEd4wrDfKaUI1D6UiQ-85" value="buscar paciente" style="edgeLabel;html=1;align=center;verticalAlign=middle;resizable=0;points=[];" parent="SlbEd4wrDfKaUI1D6UiQ-84" vertex="1" connectable="0">
          <mxGeometry x="0.1519" y="-1" relative="1" as="geometry">
            <mxPoint x="-12" as="offset" />
          </mxGeometry>
        </mxCell>
        <mxCell id="SlbEd4wrDfKaUI1D6UiQ-86" style="edgeStyle=orthogonalEdgeStyle;rounded=0;orthogonalLoop=1;jettySize=auto;html=1;curved=0;dashed=1;" parent="1" edge="1">
          <mxGeometry relative="1" as="geometry">
            <mxPoint x="660" y="1600" as="sourcePoint" />
            <mxPoint x="454.66666666666674" y="1600" as="targetPoint" />
            <Array as="points">
              <mxPoint x="635" y="1600" />
              <mxPoint x="635" y="1600" />
            </Array>
          </mxGeometry>
        </mxCell>
        <mxCell id="SlbEd4wrDfKaUI1D6UiQ-87" value="return" style="edgeLabel;html=1;align=center;verticalAlign=middle;resizable=0;points=[];" parent="SlbEd4wrDfKaUI1D6UiQ-86" vertex="1" connectable="0">
          <mxGeometry x="-0.2073" y="4" relative="1" as="geometry">
            <mxPoint x="-18" y="-4" as="offset" />
          </mxGeometry>
        </mxCell>
        <mxCell id="SlbEd4wrDfKaUI1D6UiQ-88" style="edgeStyle=orthogonalEdgeStyle;rounded=0;orthogonalLoop=1;jettySize=auto;html=1;curved=0;" parent="1" target="SlbEd4wrDfKaUI1D6UiQ-76" edge="1">
          <mxGeometry relative="1" as="geometry">
            <Array as="points">
              <mxPoint x="770" y="2170" />
              <mxPoint x="770" y="2170" />
            </Array>
            <mxPoint x="675" y="2170" as="sourcePoint" />
          </mxGeometry>
        </mxCell>
        <mxCell id="SlbEd4wrDfKaUI1D6UiQ-89" value="buscar paciente" style="edgeLabel;html=1;align=center;verticalAlign=middle;resizable=0;points=[];" parent="SlbEd4wrDfKaUI1D6UiQ-88" vertex="1" connectable="0">
          <mxGeometry x="-0.1802" y="-2" relative="1" as="geometry">
            <mxPoint x="15" y="-12" as="offset" />
          </mxGeometry>
        </mxCell>
        <mxCell id="SlbEd4wrDfKaUI1D6UiQ-117" value="&lt;div style=&quot;overflow: hidden; position: relative; outline: 0px;&quot; tabindex=&quot;0&quot; id=&quot;tw-target-text-container&quot; class=&quot;tw-ta-container F0azHf tw-nfl&quot;&gt;&lt;pre style=&quot;unicode-bidi: isolate; line-height: 36px; border: none; padding: 2px 0.14em 2px 0px; position: relative; margin-top: -2px; margin-bottom: -2px; resize: none; font-family: inherit; overflow: hidden; text-align: left; width: 270.012px; overflow-wrap: break-word;&quot; dir=&quot;ltr&quot; data-ved=&quot;2ahUKEwjh6ZzGmIaDAxUsQTABHa13DDsQ3ewLegQIDRAQ&quot; id=&quot;tw-target-text&quot; data-placeholder=&quot;Traducción&quot; class=&quot;tw-data-text tw-text-large tw-ta&quot;&gt;&lt;/pre&gt;&lt;/div&gt;PartialPayment&lt;br&gt;Microservice" style="shape=umlLifeline;perimeter=lifelinePerimeter;whiteSpace=wrap;html=1;container=1;dropTarget=0;collapsible=0;recursiveResize=0;outlineConnect=0;portConstraint=eastwest;newEdgeStyle={&quot;edgeStyle&quot;:&quot;elbowEdgeStyle&quot;,&quot;elbow&quot;:&quot;vertical&quot;,&quot;curved&quot;:0,&quot;rounded&quot;:0};size=40;" parent="1" vertex="1">
          <mxGeometry x="600" y="2745" width="120" height="1205" as="geometry" />
        </mxCell>
        <mxCell id="SlbEd4wrDfKaUI1D6UiQ-118" value="" style="html=1;points=[[0,0,0,0,5],[0,1,0,0,-5],[1,0,0,0,5],[1,1,0,0,-5]];perimeter=orthogonalPerimeter;outlineConnect=0;targetShapes=umlLifeline;portConstraint=eastwest;newEdgeStyle={&quot;curved&quot;:0,&quot;rounded&quot;:0};fillColor=default;" parent="SlbEd4wrDfKaUI1D6UiQ-117" vertex="1">
          <mxGeometry x="55" y="50" width="10" height="1110" as="geometry" />
        </mxCell>
        <mxCell id="SlbEd4wrDfKaUI1D6UiQ-119" value="PosWin&lt;br&gt;&lt;div style=&quot;font-family: &amp;quot;JetBrains Mono&amp;quot;, monospace; font-size: 6px;&quot;&gt;&lt;br&gt;&lt;/div&gt;" style="shape=umlLifeline;perimeter=lifelinePerimeter;whiteSpace=wrap;html=1;container=1;dropTarget=0;collapsible=0;recursiveResize=0;outlineConnect=0;portConstraint=eastwest;newEdgeStyle={&quot;edgeStyle&quot;:&quot;elbowEdgeStyle&quot;,&quot;elbow&quot;:&quot;vertical&quot;,&quot;curved&quot;:0,&quot;rounded&quot;:0};" parent="1" vertex="1">
          <mxGeometry x="160.33" y="2745" width="200" height="1215" as="geometry" />
        </mxCell>
        <mxCell id="SlbEd4wrDfKaUI1D6UiQ-120" value="" style="html=1;points=[[0,0,0,0,5],[0,1,0,0,-5],[1,0,0,0,5],[1,1,0,0,-5]];perimeter=orthogonalPerimeter;outlineConnect=0;targetShapes=umlLifeline;portConstraint=eastwest;newEdgeStyle={&quot;curved&quot;:0,&quot;rounded&quot;:0};" parent="SlbEd4wrDfKaUI1D6UiQ-119" vertex="1">
          <mxGeometry x="95" y="60" width="10" height="1120" as="geometry" />
        </mxCell>
        <mxCell id="SlbEd4wrDfKaUI1D6UiQ-121" value="&lt;font style=&quot;font-size: 16px;&quot;&gt;&lt;b&gt;Realizar venta con anticipo&lt;/b&gt;&lt;/font&gt;&lt;b&gt;&lt;font style=&quot;font-size: 22px;&quot;&gt;&lt;br&gt;&lt;/font&gt;&lt;/b&gt;" style="text;html=1;align=center;verticalAlign=middle;resizable=0;points=[];autosize=1;strokeColor=none;fillColor=none;" parent="1" vertex="1">
          <mxGeometry x="40" y="2685" width="230" height="40" as="geometry" />
        </mxCell>
        <mxCell id="bVuoukiCrdBaACWzmKuW-19" style="edgeStyle=orthogonalEdgeStyle;rounded=0;orthogonalLoop=1;jettySize=auto;html=1;curved=0;" parent="1" source="SlbEd4wrDfKaUI1D6UiQ-122" target="SlbEd4wrDfKaUI1D6UiQ-119" edge="1">
          <mxGeometry relative="1" as="geometry">
            <Array as="points">
              <mxPoint x="160" y="3050" />
              <mxPoint x="160" y="3050" />
            </Array>
          </mxGeometry>
        </mxCell>
        <mxCell id="bVuoukiCrdBaACWzmKuW-22" value="Seleccionar&lt;br&gt;Armazón&amp;nbsp;" style="edgeLabel;html=1;align=center;verticalAlign=middle;resizable=0;points=[];" parent="bVuoukiCrdBaACWzmKuW-19" vertex="1" connectable="0">
          <mxGeometry x="0.0497" y="1" relative="1" as="geometry">
            <mxPoint as="offset" />
          </mxGeometry>
        </mxCell>
        <mxCell id="bVuoukiCrdBaACWzmKuW-25" style="edgeStyle=orthogonalEdgeStyle;rounded=0;orthogonalLoop=1;jettySize=auto;html=1;curved=0;" parent="1" edge="1">
          <mxGeometry relative="1" as="geometry">
            <mxPoint x="59.99666666666663" y="3140" as="sourcePoint" />
            <mxPoint x="264.91000000000014" y="3140" as="targetPoint" />
            <Array as="points">
              <mxPoint x="185.08" y="3140" />
              <mxPoint x="185.08" y="3140" />
            </Array>
          </mxGeometry>
        </mxCell>
        <mxCell id="bVuoukiCrdBaACWzmKuW-26" value="Validar venta" style="edgeLabel;html=1;align=center;verticalAlign=middle;resizable=0;points=[];" parent="bVuoukiCrdBaACWzmKuW-25" vertex="1" connectable="0">
          <mxGeometry x="0.0636" y="2" relative="1" as="geometry">
            <mxPoint x="-14" y="2" as="offset" />
          </mxGeometry>
        </mxCell>
        <mxCell id="SlbEd4wrDfKaUI1D6UiQ-122" value="" style="shape=umlLifeline;perimeter=lifelinePerimeter;whiteSpace=wrap;html=1;container=1;dropTarget=0;collapsible=0;recursiveResize=0;outlineConnect=0;portConstraint=eastwest;newEdgeStyle={&quot;curved&quot;:0,&quot;rounded&quot;:0};participant=umlActor;" parent="1" vertex="1">
          <mxGeometry x="50" y="2755" width="20" height="1195" as="geometry" />
        </mxCell>
        <mxCell id="SlbEd4wrDfKaUI1D6UiQ-128" value="optiene paciente" style="html=1;verticalAlign=bottom;endArrow=block;curved=0;rounded=0;" parent="1" source="SlbEd4wrDfKaUI1D6UiQ-122" target="SlbEd4wrDfKaUI1D6UiQ-120" edge="1">
          <mxGeometry width="80" relative="1" as="geometry">
            <mxPoint x="80" y="2835" as="sourcePoint" />
            <mxPoint x="160" y="2835" as="targetPoint" />
            <Array as="points">
              <mxPoint x="150" y="2835" />
            </Array>
          </mxGeometry>
        </mxCell>
        <mxCell id="SlbEd4wrDfKaUI1D6UiQ-130" value="PosService&lt;br&gt;&lt;div style=&quot;font-family: &amp;quot;JetBrains Mono&amp;quot;, monospace; font-size: 6px;&quot;&gt;&lt;div style=&quot;&quot;&gt;&lt;div style=&quot;&quot;&gt;&lt;div style=&quot;&quot;&gt;&lt;br&gt;&lt;/div&gt;&lt;/div&gt;&lt;/div&gt;&lt;/div&gt;" style="shape=umlLifeline;perimeter=lifelinePerimeter;whiteSpace=wrap;html=1;container=1;dropTarget=0;collapsible=0;recursiveResize=0;outlineConnect=0;portConstraint=eastwest;newEdgeStyle={&quot;edgeStyle&quot;:&quot;elbowEdgeStyle&quot;,&quot;elbow&quot;:&quot;vertical&quot;,&quot;curved&quot;:0,&quot;rounded&quot;:0};" parent="1" vertex="1">
          <mxGeometry x="400" y="2745" width="160" height="1215" as="geometry" />
        </mxCell>
        <mxCell id="SlbEd4wrDfKaUI1D6UiQ-131" value="" style="html=1;points=[[0,0,0,0,5],[0,1,0,0,-5],[1,0,0,0,5],[1,1,0,0,-5]];perimeter=orthogonalPerimeter;outlineConnect=0;targetShapes=umlLifeline;portConstraint=eastwest;newEdgeStyle={&quot;curved&quot;:0,&quot;rounded&quot;:0};" parent="SlbEd4wrDfKaUI1D6UiQ-130" vertex="1">
          <mxGeometry x="75" y="50" width="10" height="1110" as="geometry" />
        </mxCell>
        <mxCell id="SlbEd4wrDfKaUI1D6UiQ-132" value="return" style="html=1;verticalAlign=bottom;endArrow=open;dashed=1;endSize=8;curved=0;rounded=0;" parent="1" edge="1">
          <mxGeometry relative="1" as="geometry">
            <mxPoint x="259.99999999999994" y="2870" as="sourcePoint" />
            <mxPoint x="64.17" y="2870" as="targetPoint" />
            <Array as="points">
              <mxPoint x="90" y="2870" />
            </Array>
          </mxGeometry>
        </mxCell>
        <mxCell id="Edmb4_Uyd93IGBK1POb5-6" value="&lt;span style=&quot;color: rgb(0, 0, 0); font-family: &amp;quot;JetBrains Mono&amp;quot;, monospace; font-size: 6px; font-style: normal; font-variant-ligatures: normal; font-variant-caps: normal; font-weight: 400; letter-spacing: normal; orphans: 2; text-align: center; text-indent: 0px; text-transform: none; widows: 2; word-spacing: 0px; -webkit-text-stroke-width: 0px; background-color: rgb(204, 255, 204); text-decoration-thickness: initial; text-decoration-style: initial; text-decoration-color: initial; float: none; display: inline !important;&quot;&gt;PatientManagerImpl.Search&lt;/span&gt;&lt;br style=&quot;border-color: var(--border-color); color: rgb(0, 0, 0); font-family: &amp;quot;JetBrains Mono&amp;quot;, monospace; font-size: 6px; font-style: normal; font-variant-ligatures: normal; font-variant-caps: normal; font-weight: 400; letter-spacing: normal; orphans: 2; text-align: center; text-indent: 0px; text-transform: none; widows: 2; word-spacing: 0px; -webkit-text-stroke-width: 0px; text-decoration-thickness: initial; text-decoration-style: initial; text-decoration-color: initial;&quot;&gt;" style="text;whiteSpace=wrap;html=1;" parent="1" vertex="1">
          <mxGeometry x="414" y="1500" width="120" height="40" as="geometry" />
        </mxCell>
        <mxCell id="kQJ4jHqbSBEslAcm7hNM-1" value="&lt;span style=&quot;background-color: rgb(255, 206, 159);&quot;&gt;&lt;span style=&quot;color: rgb(0, 0, 0); font-family: &amp;quot;JetBrains Mono&amp;quot;, monospace; font-size: 6px; font-style: normal; font-variant-ligatures: normal; font-variant-caps: normal; font-weight: 400; letter-spacing: normal; orphans: 2; text-align: center; text-indent: 0px; text-transform: none; widows: 2; word-spacing: 0px; -webkit-text-stroke-width: 0px; text-decoration-thickness: initial; text-decoration-style: initial; text-decoration-color: initial; float: none; display: inline !important;&quot;&gt;PatientSearchViewModel.OnSearch&lt;/span&gt;&lt;br style=&quot;border-color: var(--border-color); color: rgb(0, 0, 0); font-family: &amp;quot;JetBrains Mono&amp;quot;, monospace; font-size: 6px; font-style: normal; font-variant-ligatures: normal; font-variant-caps: normal; font-weight: 400; letter-spacing: normal; orphans: 2; text-align: center; text-indent: 0px; text-transform: none; widows: 2; word-spacing: 0px; -webkit-text-stroke-width: 0px; text-decoration-thickness: initial; text-decoration-style: initial; text-decoration-color: initial;&quot;&gt;&lt;/span&gt;&lt;div style=&quot;border-color: var(--border-color); color: rgb(0, 0, 0); font-family: &amp;quot;JetBrains Mono&amp;quot;, monospace; font-size: 6px; font-style: normal; font-variant-ligatures: normal; font-variant-caps: normal; font-weight: 400; letter-spacing: normal; orphans: 2; text-align: center; text-indent: 0px; text-transform: none; widows: 2; word-spacing: 0px; -webkit-text-stroke-width: 0px; text-decoration-thickness: initial; text-decoration-style: initial; text-decoration-color: initial;&quot;&gt;&lt;span style=&quot;background-color: rgb(255, 206, 159);&quot;&gt;IServiceCentralAdapter.PatientSOMSearch&lt;/span&gt;&lt;/div&gt;" style="text;whiteSpace=wrap;html=1;" parent="1" vertex="1">
          <mxGeometry x="170" y="1480" width="160" height="50" as="geometry" />
        </mxCell>
        <mxCell id="bVuoukiCrdBaACWzmKuW-1" value="&lt;font style=&quot;font-size: 7px; background-color: rgb(255, 206, 159);&quot;&gt;&lt;span style=&quot;color: rgb(37, 37, 37); font-family: Roboto, arial, sans-serif; font-style: normal; font-variant-ligatures: normal; font-variant-caps: normal; font-weight: 400; letter-spacing: normal; orphans: 2; text-align: start; text-indent: 0px; text-transform: none; widows: 2; word-spacing: 0px; -webkit-text-stroke-width: 0px; text-decoration-thickness: initial; text-decoration-style: initial; text-decoration-color: initial; float: none; display: inline !important;&quot;&gt;ServiceProviderPatientSOM.&lt;/span&gt;PatientSOMSearch&lt;/font&gt;" style="text;whiteSpace=wrap;html=1;" parent="1" vertex="1">
          <mxGeometry x="390" y="1480" width="160" height="30" as="geometry" />
        </mxCell>
        <mxCell id="bVuoukiCrdBaACWzmKuW-5" value="&lt;font style=&quot;font-size: 7px; background-color: rgb(255, 206, 159);&quot;&gt;&lt;span style=&quot;color: rgb(37, 37, 37); font-family: Roboto, arial, sans-serif; font-style: normal; font-variant-ligatures: normal; font-variant-caps: normal; font-weight: 400; letter-spacing: normal; orphans: 2; text-align: start; text-indent: 0px; text-transform: none; widows: 2; word-spacing: 0px; -webkit-text-stroke-width: 0px; text-decoration-thickness: initial; text-decoration-style: initial; text-decoration-color: initial; float: none; display: inline !important;&quot;&gt;ServiceProviderPatientSOM.&lt;/span&gt;PatientSOMUpdate&lt;/font&gt;" style="text;whiteSpace=wrap;html=1;" parent="1" vertex="1">
          <mxGeometry x="380" y="1670" width="260" height="50" as="geometry" />
        </mxCell>
        <mxCell id="bVuoukiCrdBaACWzmKuW-6" style="edgeStyle=orthogonalEdgeStyle;rounded=0;orthogonalLoop=1;jettySize=auto;html=1;curved=0;" parent="1" source="SlbEd4wrDfKaUI1D6UiQ-36" target="SlbEd4wrDfKaUI1D6UiQ-82" edge="1">
          <mxGeometry relative="1" as="geometry">
            <Array as="points">
              <mxPoint x="570" y="1740" />
              <mxPoint x="570" y="1740" />
            </Array>
          </mxGeometry>
        </mxCell>
        <mxCell id="bVuoukiCrdBaACWzmKuW-7" value="registrar paciente" style="edgeLabel;html=1;align=center;verticalAlign=middle;resizable=0;points=[];" parent="bVuoukiCrdBaACWzmKuW-6" vertex="1" connectable="0">
          <mxGeometry x="-0.0266" y="-3" relative="1" as="geometry">
            <mxPoint y="-13" as="offset" />
          </mxGeometry>
        </mxCell>
        <mxCell id="bVuoukiCrdBaACWzmKuW-8" value="&lt;span style=&quot;border-color: var(--border-color); color: rgb(0, 0, 0); font-family: &amp;quot;JetBrains Mono&amp;quot;, monospace; font-size: 6px; font-style: normal; font-variant-ligatures: normal; font-variant-caps: normal; font-weight: 400; letter-spacing: normal; orphans: 2; text-align: center; text-indent: 0px; text-transform: none; widows: 2; word-spacing: 0px; -webkit-text-stroke-width: 0px; text-decoration-thickness: initial; text-decoration-style: initial; text-decoration-color: initial; background-color: rgb(204, 255, 204);&quot;&gt;PatientPartialSearchViewModel.OnSearch&lt;br style=&quot;border-color: var(--border-color);&quot;&gt;&lt;/span&gt;&lt;div style=&quot;border-color: var(--border-color); color: rgb(0, 0, 0); font-family: &amp;quot;JetBrains Mono&amp;quot;, monospace; font-size: 6px; font-style: normal; font-variant-ligatures: normal; font-variant-caps: normal; font-weight: 400; letter-spacing: normal; orphans: 2; text-align: center; text-indent: 0px; text-transform: none; widows: 2; word-spacing: 0px; -webkit-text-stroke-width: 0px; background-color: rgb(251, 251, 251); text-decoration-thickness: initial; text-decoration-style: initial; text-decoration-color: initial;&quot;&gt;&lt;span style=&quot;border-color: var(--border-color); background-color: rgb(204, 255, 204);&quot;&gt;PatientManager.Search&lt;/span&gt;&lt;/div&gt;" style="text;whiteSpace=wrap;html=1;" parent="1" vertex="1">
          <mxGeometry x="200.33" y="1990" width="160" height="50" as="geometry" />
        </mxCell>
        <mxCell id="Edmb4_Uyd93IGBK1POb5-8" value="&lt;span style=&quot;color: rgb(0, 0, 0); font-family: Helvetica; font-size: 8px; font-style: normal; font-variant-ligatures: normal; font-variant-caps: normal; font-weight: 400; letter-spacing: normal; orphans: 2; text-align: center; text-indent: 0px; text-transform: none; widows: 2; word-spacing: 0px; -webkit-text-stroke-width: 0px; background-color: rgb(204, 255, 204); text-decoration-thickness: initial; text-decoration-style: initial; text-decoration-color: initial; float: none; display: inline !important;&quot;&gt;PatientManager.find&lt;/span&gt;" style="text;whiteSpace=wrap;html=1;" parent="1" vertex="1">
          <mxGeometry x="630" y="1990" width="100" height="40" as="geometry" />
        </mxCell>
        <mxCell id="bVuoukiCrdBaACWzmKuW-10" value="&lt;span style=&quot;color: rgb(0, 0, 0); font-family: &amp;quot;JetBrains Mono&amp;quot;, monospace; font-size: 6px; font-style: normal; font-variant-ligatures: normal; font-variant-caps: normal; font-weight: 400; letter-spacing: normal; orphans: 2; text-align: center; text-indent: 0px; text-transform: none; widows: 2; word-spacing: 0px; -webkit-text-stroke-width: 0px; background-color: rgb(204, 255, 204); text-decoration-thickness: initial; text-decoration-style: initial; text-decoration-color: initial; float: none; display: inline !important;&quot;&gt;PatientManagerImpl.Store&lt;/span&gt;" style="text;whiteSpace=wrap;html=1;" parent="1" vertex="1">
          <mxGeometry x="430" y="2360" width="120" height="40" as="geometry" />
        </mxCell>
        <mxCell id="bVuoukiCrdBaACWzmKuW-11" value="Seleccionar/Registrar&lt;br&gt;&amp;nbsp;Examen de la vista" style="html=1;verticalAlign=bottom;endArrow=block;curved=0;rounded=0;" parent="1" edge="1">
          <mxGeometry width="80" relative="1" as="geometry">
            <mxPoint x="60" y="2950" as="sourcePoint" />
            <mxPoint x="255.00000000000003" y="2950" as="targetPoint" />
            <Array as="points">
              <mxPoint x="150" y="2950" />
            </Array>
          </mxGeometry>
        </mxCell>
        <mxCell id="bVuoukiCrdBaACWzmKuW-12" value="return" style="html=1;verticalAlign=bottom;endArrow=open;dashed=1;endSize=8;curved=0;rounded=0;" parent="1" edge="1">
          <mxGeometry relative="1" as="geometry">
            <mxPoint x="255.82999999999996" y="2980" as="sourcePoint" />
            <mxPoint x="60" y="2980" as="targetPoint" />
            <Array as="points">
              <mxPoint x="85.83" y="2980" />
            </Array>
          </mxGeometry>
        </mxCell>
        <mxCell id="bVuoukiCrdBaACWzmKuW-14" value="&lt;font style=&quot;font-size: 7px; background-color: rgb(255, 181, 112);&quot;&gt;TreatmentSelectionView&lt;span style=&quot;color: rgb(0, 0, 0); font-family: &amp;quot;JetBrains Mono&amp;quot;, monospace; font-style: normal; font-variant-ligatures: normal; font-variant-caps: normal; font-weight: 400; letter-spacing: normal; orphans: 2; text-align: center; text-indent: 0px; text-transform: none; widows: 2; word-spacing: 0px; -webkit-text-stroke-width: 0px; text-decoration-thickness: initial; text-decoration-style: initial; text-decoration-color: initial; float: none; display: inline !important;&quot;&gt;.SelectItem&lt;/span&gt;&lt;br style=&quot;border-color: var(--border-color); color: rgb(0, 0, 0); font-family: &amp;quot;JetBrains Mono&amp;quot;, monospace; font-style: normal; font-variant-ligatures: normal; font-variant-caps: normal; font-weight: 400; letter-spacing: normal; orphans: 2; text-align: center; text-indent: 0px; text-transform: none; widows: 2; word-spacing: 0px; -webkit-text-stroke-width: 0px; text-decoration-thickness: initial; text-decoration-style: initial; text-decoration-color: initial;&quot;&gt;&lt;/font&gt;&lt;div style=&quot;border-color: var(--border-color); color: rgb(0, 0, 0); font-family: &amp;quot;JetBrains Mono&amp;quot;, monospace; font-size: 7px; font-style: normal; font-variant-ligatures: normal; font-variant-caps: normal; font-weight: 400; letter-spacing: normal; orphans: 2; text-align: center; text-indent: 0px; text-transform: none; widows: 2; word-spacing: 0px; -webkit-text-stroke-width: 0px; text-decoration-thickness: initial; text-decoration-style: initial; text-decoration-color: initial;&quot;&gt;&lt;br&gt;&lt;/div&gt;" style="text;whiteSpace=wrap;html=1;" parent="1" vertex="1">
          <mxGeometry x="200" y="2890" width="160" height="50" as="geometry" />
        </mxCell>
        <mxCell id="bVuoukiCrdBaACWzmKuW-18" value="&lt;div style=&quot;font-family: &amp;quot;JetBrains Mono&amp;quot;, monospace;&quot;&gt;&lt;span style=&quot;background-color: rgb(255, 206, 159);&quot;&gt;&lt;font style=&quot;font-size: 8px;&quot;&gt;&lt;b&gt;SaleViewModel&lt;/b&gt;&lt;/font&gt;&lt;/span&gt;&lt;/div&gt;" style="text;whiteSpace=wrap;html=1;" parent="1" vertex="1">
          <mxGeometry x="225.33" y="2790" width="74.67" height="30" as="geometry" />
        </mxCell>
        <mxCell id="bVuoukiCrdBaACWzmKuW-20" value="&lt;div style=&quot;font-family: &amp;quot;JetBrains Mono&amp;quot;, monospace; font-size: 7px;&quot;&gt;&lt;font color=&quot;#262626&quot; style=&quot;font-size: 7px; background-color: rgb(255, 181, 112);&quot;&gt;ArmazonSelectionView.&lt;/font&gt;&lt;/div&gt;&lt;font color=&quot;#262626&quot; style=&quot;font-size: 7px; background-color: rgb(255, 181, 112);&quot;&gt;SelectItem&lt;/font&gt;" style="text;html=1;align=center;verticalAlign=middle;resizable=0;points=[];autosize=1;strokeColor=none;fillColor=none;" parent="1" vertex="1">
          <mxGeometry x="205" y="3000" width="100" height="40" as="geometry" />
        </mxCell>
        <mxCell id="bVuoukiCrdBaACWzmKuW-23" value="return" style="html=1;verticalAlign=bottom;endArrow=open;dashed=1;endSize=8;curved=0;rounded=0;" parent="1" edge="1">
          <mxGeometry relative="1" as="geometry">
            <mxPoint x="255.82999999999993" y="3090.08" as="sourcePoint" />
            <mxPoint x="60" y="3090.08" as="targetPoint" />
            <Array as="points">
              <mxPoint x="85.83" y="3090.08" />
            </Array>
          </mxGeometry>
        </mxCell>
        <mxCell id="afIbKy-ohWElCPM09Oik-12" style="edgeStyle=orthogonalEdgeStyle;rounded=0;orthogonalLoop=1;jettySize=auto;html=1;curved=0;" parent="1" edge="1">
          <mxGeometry relative="1" as="geometry">
            <mxPoint x="59.99666666666663" y="3680" as="sourcePoint" />
            <mxPoint x="264.91000000000014" y="3680" as="targetPoint" />
            <Array as="points">
              <mxPoint x="185.08" y="3680" />
              <mxPoint x="185.08" y="3680" />
            </Array>
          </mxGeometry>
        </mxCell>
        <mxCell id="afIbKy-ohWElCPM09Oik-13" value="Seleccionar FormasDePago" style="edgeLabel;html=1;align=center;verticalAlign=middle;resizable=0;points=[];" parent="afIbKy-ohWElCPM09Oik-12" vertex="1" connectable="0">
          <mxGeometry x="0.0636" y="2" relative="1" as="geometry">
            <mxPoint x="-9" as="offset" />
          </mxGeometry>
        </mxCell>
        <mxCell id="afIbKy-ohWElCPM09Oik-16" value="&lt;div style=&quot;font-family: &amp;quot;JetBrains Mono&amp;quot;, monospace; font-size: 7px;&quot;&gt;&lt;span style=&quot;background-color: rgb(212, 225, 245);&quot;&gt;ServiceTenderManager.GetSaleServicePayments&lt;/span&gt;&lt;/div&gt;" style="text;whiteSpace=wrap;html=1;" parent="1" vertex="1">
          <mxGeometry x="170" y="3640" width="175" height="20" as="geometry" />
        </mxCell>
        <mxCell id="afIbKy-ohWElCPM09Oik-19" style="edgeStyle=orthogonalEdgeStyle;rounded=0;orthogonalLoop=1;jettySize=auto;html=1;curved=0;" parent="1" edge="1">
          <mxGeometry relative="1" as="geometry">
            <mxPoint x="265.4099999999999" y="3690" as="sourcePoint" />
            <mxPoint x="480" y="3690" as="targetPoint" />
            <Array as="points">
              <mxPoint x="373.08" y="3690" />
              <mxPoint x="480.08" y="3691" />
            </Array>
          </mxGeometry>
        </mxCell>
        <mxCell id="afIbKy-ohWElCPM09Oik-20" value="Buscar Formas de Pago" style="edgeLabel;html=1;align=center;verticalAlign=middle;resizable=0;points=[];" parent="afIbKy-ohWElCPM09Oik-19" vertex="1" connectable="0">
          <mxGeometry x="0.0636" y="2" relative="1" as="geometry">
            <mxPoint as="offset" />
          </mxGeometry>
        </mxCell>
        <mxCell id="afIbKy-ohWElCPM09Oik-21" value="return" style="html=1;verticalAlign=bottom;endArrow=open;dashed=1;endSize=8;curved=0;rounded=0;" parent="1" edge="1">
          <mxGeometry relative="1" as="geometry">
            <mxPoint x="475" y="3720" as="sourcePoint" />
            <mxPoint x="260" y="3720" as="targetPoint" />
            <Array as="points">
              <mxPoint x="295.83" y="3720" />
            </Array>
          </mxGeometry>
        </mxCell>
        <mxCell id="afIbKy-ohWElCPM09Oik-22" value="return" style="html=1;verticalAlign=bottom;endArrow=open;dashed=1;endSize=8;curved=0;rounded=0;" parent="1" edge="1">
          <mxGeometry relative="1" as="geometry">
            <mxPoint x="260" y="3739.58" as="sourcePoint" />
            <mxPoint x="55" y="3739.58" as="targetPoint" />
            <Array as="points">
              <mxPoint x="80.82999999999998" y="3739.58" />
            </Array>
          </mxGeometry>
        </mxCell>
        <mxCell id="afIbKy-ohWElCPM09Oik-31" style="edgeStyle=orthogonalEdgeStyle;rounded=0;orthogonalLoop=1;jettySize=auto;html=1;curved=0;" parent="1" edge="1">
          <mxGeometry relative="1" as="geometry">
            <mxPoint x="55.08666666666663" y="3770" as="sourcePoint" />
            <mxPoint x="260.0000000000001" y="3770" as="targetPoint" />
            <Array as="points">
              <mxPoint x="180.17000000000002" y="3770" />
              <mxPoint x="180.17000000000002" y="3770" />
            </Array>
          </mxGeometry>
        </mxCell>
        <mxCell id="afIbKy-ohWElCPM09Oik-32" value="Pagar" style="edgeLabel;html=1;align=center;verticalAlign=middle;resizable=0;points=[];" parent="afIbKy-ohWElCPM09Oik-31" vertex="1" connectable="0">
          <mxGeometry x="0.0636" y="2" relative="1" as="geometry">
            <mxPoint as="offset" />
          </mxGeometry>
        </mxCell>
        <mxCell id="afIbKy-ohWElCPM09Oik-35" value="return" style="html=1;verticalAlign=bottom;endArrow=open;dashed=1;endSize=8;curved=0;rounded=0;" parent="1" edge="1">
          <mxGeometry relative="1" as="geometry">
            <mxPoint x="475" y="3820" as="sourcePoint" />
            <mxPoint x="260" y="3820" as="targetPoint" />
            <Array as="points">
              <mxPoint x="295.83" y="3820" />
            </Array>
          </mxGeometry>
        </mxCell>
        <mxCell id="afIbKy-ohWElCPM09Oik-36" style="edgeStyle=orthogonalEdgeStyle;rounded=0;orthogonalLoop=1;jettySize=auto;html=1;curved=0;" parent="1" edge="1">
          <mxGeometry relative="1" as="geometry">
            <mxPoint x="260" y="3841" as="sourcePoint" />
            <mxPoint x="479.91" y="3840" as="targetPoint" />
            <Array as="points">
              <mxPoint x="376" y="3841" />
              <mxPoint x="376" y="3840" />
            </Array>
          </mxGeometry>
        </mxCell>
        <mxCell id="afIbKy-ohWElCPM09Oik-37" value="Registrar Primer Pago" style="edgeLabel;html=1;align=center;verticalAlign=middle;resizable=0;points=[];" parent="afIbKy-ohWElCPM09Oik-36" vertex="1" connectable="0">
          <mxGeometry x="0.0636" y="2" relative="1" as="geometry">
            <mxPoint as="offset" />
          </mxGeometry>
        </mxCell>
        <mxCell id="afIbKy-ohWElCPM09Oik-39" value="&lt;span style=&quot;border-color: var(--border-color); font-family: &amp;quot;JetBrains Mono&amp;quot;, monospace; font-style: normal; font-variant-ligatures: normal; font-variant-caps: normal; font-weight: 400; letter-spacing: normal; orphans: 2; text-align: center; text-indent: 0px; text-transform: none; widows: 2; word-spacing: 0px; -webkit-text-stroke-width: 0px; text-decoration-thickness: initial; text-decoration-style: initial; text-decoration-color: initial; font-size: 7px;&quot;&gt;&lt;br&gt;&lt;span style=&quot;background-color: rgb(204, 255, 204);&quot;&gt;&lt;font style=&quot;font-size: 7px;&quot;&gt;PartialSalesManager.register&lt;/font&gt;&lt;/span&gt;&lt;/span&gt;" style="text;whiteSpace=wrap;html=1;" parent="1" vertex="1">
          <mxGeometry x="417" y="3750" width="146" height="20" as="geometry" />
        </mxCell>
        <mxCell id="afIbKy-ohWElCPM09Oik-40" style="edgeStyle=orthogonalEdgeStyle;rounded=0;orthogonalLoop=1;jettySize=auto;html=1;curved=0;" parent="1" edge="1">
          <mxGeometry relative="1" as="geometry">
            <mxPoint x="490" y="3850.000000000001" as="sourcePoint" />
            <mxPoint x="660" y="3850.000000000001" as="targetPoint" />
            <Array as="points">
              <mxPoint x="625" y="3850" />
              <mxPoint x="625" y="3850" />
            </Array>
          </mxGeometry>
        </mxCell>
        <mxCell id="afIbKy-ohWElCPM09Oik-41" value="RegistrarPrimerPago" style="edgeLabel;html=1;align=center;verticalAlign=middle;resizable=0;points=[];" parent="afIbKy-ohWElCPM09Oik-40" vertex="1" connectable="0">
          <mxGeometry x="0.0636" y="2" relative="1" as="geometry">
            <mxPoint x="-4" y="2" as="offset" />
          </mxGeometry>
        </mxCell>
        <mxCell id="xskI6EM2PWzq-yr3aYE5-1" value="Alt" style="shape=umlFrame;whiteSpace=wrap;html=1;pointerEvents=0;recursiveResize=0;container=1;collapsible=0;width=170;" parent="1" vertex="1">
          <mxGeometry x="50" y="3210" width="500" height="220" as="geometry" />
        </mxCell>
        <mxCell id="xskI6EM2PWzq-yr3aYE5-2" value="No pasa las validaciones. (Se editan los productos o se termina la venta)" style="text;html=1;" parent="xskI6EM2PWzq-yr3aYE5-1" vertex="1">
          <mxGeometry width="100" height="20" relative="1" as="geometry">
            <mxPoint x="20" y="40" as="offset" />
          </mxGeometry>
        </mxCell>
        <mxCell id="xskI6EM2PWzq-yr3aYE5-3" value="Continua el flujo" style="line;strokeWidth=1;dashed=1;labelPosition=center;verticalLabelPosition=bottom;align=left;verticalAlign=top;spacingLeft=20;spacingTop=15;html=1;whiteSpace=wrap;" parent="xskI6EM2PWzq-yr3aYE5-1" vertex="1">
          <mxGeometry y="70" width="290" height="90" as="geometry" />
        </mxCell>
        <mxCell id="xskI6EM2PWzq-yr3aYE5-5" style="edgeStyle=orthogonalEdgeStyle;rounded=0;orthogonalLoop=1;jettySize=auto;html=1;curved=0;" parent="1" target="SlbEd4wrDfKaUI1D6UiQ-131" edge="1">
          <mxGeometry relative="1" as="geometry">
            <mxPoint x="265.08666666666664" y="3790" as="sourcePoint" />
            <mxPoint x="470.0000000000001" y="3790" as="targetPoint" />
            <Array as="points">
              <mxPoint x="265" y="3791" />
            </Array>
          </mxGeometry>
        </mxCell>
        <mxCell id="xskI6EM2PWzq-yr3aYE5-6" value="Pagar" style="edgeLabel;html=1;align=center;verticalAlign=middle;resizable=0;points=[];" parent="xskI6EM2PWzq-yr3aYE5-5" vertex="1" connectable="0">
          <mxGeometry x="0.0636" y="2" relative="1" as="geometry">
            <mxPoint as="offset" />
          </mxGeometry>
        </mxCell>
        <mxCell id="TtGzwi2vHZQbFY6JDzLK-1" value="return" style="html=1;verticalAlign=bottom;endArrow=open;dashed=1;endSize=8;curved=0;rounded=0;" parent="1" source="SlbEd4wrDfKaUI1D6UiQ-77" target="SlbEd4wrDfKaUI1D6UiQ-57" edge="1">
          <mxGeometry relative="1" as="geometry">
            <mxPoint x="770" y="2310" as="sourcePoint" />
            <mxPoint x="690" y="2310" as="targetPoint" />
            <Array as="points">
              <mxPoint x="770" y="2200" />
            </Array>
          </mxGeometry>
        </mxCell>
        <mxCell id="n08pNDLRXhW1MgjL6e5k-1" value="&lt;span style=&quot;color: rgb(0, 0, 0); font-family: &amp;quot;JetBrains Mono&amp;quot;, monospace; font-size: 6px; font-style: normal; font-variant-ligatures: normal; font-variant-caps: normal; font-weight: 400; letter-spacing: normal; orphans: 2; text-align: center; text-indent: 0px; text-transform: none; widows: 2; word-spacing: 0px; -webkit-text-stroke-width: 0px; background-color: rgb(204, 255, 204); text-decoration-thickness: initial; text-decoration-style: initial; text-decoration-color: initial; float: none; display: inline !important;&quot;&gt;PatientManagerImpl.Search&lt;/span&gt;&lt;br style=&quot;border-color: var(--border-color); color: rgb(0, 0, 0); font-family: &amp;quot;JetBrains Mono&amp;quot;, monospace; font-size: 6px; font-style: normal; font-variant-ligatures: normal; font-variant-caps: normal; font-weight: 400; letter-spacing: normal; orphans: 2; text-align: center; text-indent: 0px; text-transform: none; widows: 2; word-spacing: 0px; -webkit-text-stroke-width: 0px; text-decoration-thickness: initial; text-decoration-style: initial; text-decoration-color: initial;&quot;&gt;" style="text;whiteSpace=wrap;html=1;" parent="1" vertex="1">
          <mxGeometry x="417" y="1980" width="120" height="40" as="geometry" />
        </mxCell>
        <mxCell id="JDMkqNSnSkkKqrP1J4sm-4" value="&lt;span style=&quot;border-color: var(--border-color); font-family: &amp;quot;JetBrains Mono&amp;quot;, monospace; font-style: normal; font-variant-ligatures: normal; font-variant-caps: normal; font-weight: 400; letter-spacing: normal; orphans: 2; text-align: center; text-indent: 0px; text-transform: none; widows: 2; word-spacing: 0px; -webkit-text-stroke-width: 0px; text-decoration-thickness: initial; text-decoration-style: initial; text-decoration-color: initial; font-size: 7px;&quot;&gt;&lt;br&gt;&lt;span style=&quot;background-color: rgb(204, 255, 204);&quot;&gt;&lt;font style=&quot;font-size: 7px;&quot;&gt;PartialSalesManager.validateO&lt;/font&gt;&lt;/span&gt;&lt;/span&gt;&lt;span style=&quot;background-color: rgb(204, 255, 204); font-size: 7px;&quot;&gt;&lt;font style=&quot;font-size: 7px;&quot;&gt;ptometry&lt;/font&gt;&lt;/span&gt;" style="text;whiteSpace=wrap;html=1;" parent="1" vertex="1">
          <mxGeometry x="199" y="3090" width="146" height="40" as="geometry" />
        </mxCell>
      </root>
    </mxGraphModel>
  </diagram>
</mxfile>
