<mxfile host="app.diagrams.net" modified="2023-04-20T19:50:09.959Z" agent="Mozilla/5.0 (Windows NT 10.0; Win64; x64) AppleWebKit/537.36 (KHTML, like Gecko) Chrome/112.0.0.0 Safari/537.36" etag="B9Zq9d-IteMv8Zb-bh-1" version="21.1.5" type="gitlab">
  <diagram name="Página-1" id="_tyxcj7wcEtNAGchOhDw">
    <mxGraphModel dx="763" dy="575" grid="1" gridSize="10" guides="1" tooltips="1" connect="1" arrows="1" fold="1" page="1" pageScale="1" pageWidth="827" pageHeight="1169" math="0" shadow="0">
      <root>
        <mxCell id="0" />
        <mxCell id="1" parent="0" />
        <mxCell id="BUUPZkUYhu16ZGh0TCuC-1" value="" style="shape=mxgraph.gcp2.doubleRect;strokeColor=#dddddd;shadow=1;strokeWidth=1;" parent="1" vertex="1">
          <mxGeometry x="410" y="128" width="170" height="70" as="geometry" />
        </mxCell>
        <mxCell id="BUUPZkUYhu16ZGh0TCuC-2" value="&lt;font color=&quot;#000000&quot;&gt;ApiNotificaciones&lt;/font&gt;&lt;br&gt;Firebase" style="sketch=0;dashed=0;connectable=0;html=1;fillColor=#5184F3;strokeColor=none;shape=mxgraph.gcp2.firebase;part=1;labelPosition=right;verticalLabelPosition=middle;align=left;verticalAlign=middle;spacingLeft=5;fontColor=#999999;fontSize=12;" parent="BUUPZkUYhu16ZGh0TCuC-1" vertex="1">
          <mxGeometry width="32.4" height="45" relative="1" as="geometry">
            <mxPoint x="5" y="7" as="offset" />
          </mxGeometry>
        </mxCell>
        <mxCell id="BUUPZkUYhu16ZGh0TCuC-4" value="" style="rounded=0;whiteSpace=wrap;html=1;" parent="1" vertex="1">
          <mxGeometry x="60" y="290" width="230" height="120" as="geometry" />
        </mxCell>
        <mxCell id="BUUPZkUYhu16ZGh0TCuC-3" value="" style="sketch=0;aspect=fixed;html=1;points=[];align=center;image;fontSize=12;image=img/lib/mscae/OpenShift.svg;" parent="1" vertex="1">
          <mxGeometry x="260" y="280" width="50" height="46" as="geometry" />
        </mxCell>
        <mxCell id="BUUPZkUYhu16ZGh0TCuC-6" value="" style="sketch=0;html=1;dashed=0;whitespace=wrap;fillColor=#2875E2;strokeColor=#ffffff;points=[[0.005,0.63,0],[0.1,0.2,0],[0.9,0.2,0],[0.5,0,0],[0.995,0.63,0],[0.72,0.99,0],[0.5,1,0],[0.28,0.99,0]];verticalLabelPosition=bottom;align=center;verticalAlign=top;shape=mxgraph.kubernetes.icon;prIcon=pod" parent="1" vertex="1">
          <mxGeometry x="70" y="326" width="50" height="48" as="geometry" />
        </mxCell>
        <mxCell id="BUUPZkUYhu16ZGh0TCuC-7" value="" style="sketch=0;aspect=fixed;pointerEvents=1;shadow=0;dashed=0;html=1;strokeColor=none;labelPosition=center;verticalLabelPosition=bottom;verticalAlign=top;align=center;fillColor=#00188D;shape=mxgraph.mscae.enterprise.android_phone" parent="1" vertex="1">
          <mxGeometry x="730" y="315" width="42" height="70" as="geometry" />
        </mxCell>
        <mxCell id="BUUPZkUYhu16ZGh0TCuC-12" value="" style="endArrow=classic;startArrow=classic;html=1;rounded=0;entryX=0.01;entryY=0.01;entryDx=0;entryDy=0;entryPerimeter=0;exitX=1;exitY=1;exitDx=0;exitDy=0;" parent="1" source="BUUPZkUYhu16ZGh0TCuC-1" target="BUUPZkUYhu16ZGh0TCuC-7" edge="1">
          <mxGeometry width="50" height="50" relative="1" as="geometry">
            <mxPoint x="650" y="260" as="sourcePoint" />
            <mxPoint x="700" y="210" as="targetPoint" />
          </mxGeometry>
        </mxCell>
        <mxCell id="BUUPZkUYhu16ZGh0TCuC-14" value="" style="endArrow=classic;startArrow=classic;html=1;rounded=0;entryX=0;entryY=0.75;entryDx=0;entryDy=0;" parent="1" source="BUUPZkUYhu16ZGh0TCuC-4" target="BUUPZkUYhu16ZGh0TCuC-1" edge="1">
          <mxGeometry width="50" height="50" relative="1" as="geometry">
            <mxPoint x="390" y="400" as="sourcePoint" />
            <mxPoint x="440" y="350" as="targetPoint" />
          </mxGeometry>
        </mxCell>
        <mxCell id="BUUPZkUYhu16ZGh0TCuC-15" value="" style="endArrow=classic;startArrow=classic;html=1;rounded=0;exitX=1;exitY=0.5;exitDx=0;exitDy=0;entryX=0;entryY=0.5;entryDx=0;entryDy=0;entryPerimeter=0;" parent="1" source="BUUPZkUYhu16ZGh0TCuC-4" target="BUUPZkUYhu16ZGh0TCuC-7" edge="1">
          <mxGeometry width="50" height="50" relative="1" as="geometry">
            <mxPoint x="390" y="400" as="sourcePoint" />
            <mxPoint x="440" y="350" as="targetPoint" />
          </mxGeometry>
        </mxCell>
        <mxCell id="BUUPZkUYhu16ZGh0TCuC-16" value="" style="endArrow=classic;startArrow=classic;html=1;rounded=0;exitX=0.5;exitY=0;exitDx=0;exitDy=0;" parent="1" source="BUUPZkUYhu16ZGh0TCuC-19" edge="1">
          <mxGeometry width="50" height="50" relative="1" as="geometry">
            <mxPoint x="390" y="400" as="sourcePoint" />
            <mxPoint x="168" y="410" as="targetPoint" />
          </mxGeometry>
        </mxCell>
        <mxCell id="BUUPZkUYhu16ZGh0TCuC-17" value="&lt;div style=&quot;&quot;&gt;&lt;pre style=&quot;font-size: 10px;&quot;&gt;&lt;font style=&quot;font-size: 10px;&quot; face=&quot;Helvetica&quot;&gt;namespace: sb-sales-channels&lt;br&gt;application_group_name: appapi&lt;br&gt;deployment_name: notificaciones&lt;br&gt;routename: sb-sales-channels&lt;br&gt;app_context: /notificaciones&lt;/font&gt;&lt;/pre&gt;&lt;/div&gt;" style="text;strokeColor=none;align=left;fillColor=none;html=1;verticalAlign=middle;whiteSpace=wrap;rounded=0;" parent="1" vertex="1">
          <mxGeometry x="120" y="307.5" width="215" height="85" as="geometry" />
        </mxCell>
        <mxCell id="BUUPZkUYhu16ZGh0TCuC-19" value="" style="rounded=0;whiteSpace=wrap;html=1;" parent="1" vertex="1">
          <mxGeometry x="65" y="500" width="205" height="100" as="geometry" />
        </mxCell>
        <mxCell id="BUUPZkUYhu16ZGh0TCuC-5" value="" style="sketch=0;outlineConnect=0;fontColor=#232F3E;gradientColor=none;fillColor=#2E27AD;strokeColor=none;dashed=0;verticalLabelPosition=bottom;verticalAlign=top;align=center;html=1;fontSize=12;fontStyle=0;aspect=fixed;pointerEvents=1;shape=mxgraph.aws4.rds_oracle_instance;" parent="1" vertex="1">
          <mxGeometry x="90" y="520" width="60" height="60" as="geometry" />
        </mxCell>
        <mxCell id="BUUPZkUYhu16ZGh0TCuC-20" value="searchNotificaiones" style="text;strokeColor=none;align=center;fillColor=none;html=1;verticalAlign=middle;whiteSpace=wrap;rounded=0;" parent="1" vertex="1">
          <mxGeometry x="430" y="320" width="130" height="30" as="geometry" />
        </mxCell>
        <mxCell id="BUUPZkUYhu16ZGh0TCuC-21" value="SuscriberTopic" style="text;strokeColor=none;align=center;fillColor=none;html=1;verticalAlign=middle;whiteSpace=wrap;rounded=0;" parent="1" vertex="1">
          <mxGeometry x="570" y="277.5" width="130" height="30" as="geometry" />
        </mxCell>
        <mxCell id="BUUPZkUYhu16ZGh0TCuC-22" value="SendPushNotification" style="text;strokeColor=none;align=center;fillColor=none;html=1;verticalAlign=middle;whiteSpace=wrap;rounded=0;" parent="1" vertex="1">
          <mxGeometry x="620" y="230" width="130" height="30" as="geometry" />
        </mxCell>
        <mxCell id="BUUPZkUYhu16ZGh0TCuC-23" value="SuscriberTopic" style="text;strokeColor=none;align=center;fillColor=none;html=1;verticalAlign=middle;whiteSpace=wrap;rounded=0;" parent="1" vertex="1">
          <mxGeometry x="430" y="355" width="130" height="30" as="geometry" />
        </mxCell>
        <mxCell id="BUUPZkUYhu16ZGh0TCuC-24" value="SendPushNotification" style="text;strokeColor=none;align=center;fillColor=none;html=1;verticalAlign=middle;whiteSpace=wrap;rounded=0;" parent="1" vertex="1">
          <mxGeometry x="210" y="220" width="130" height="30" as="geometry" />
        </mxCell>
        <mxCell id="BUUPZkUYhu16ZGh0TCuC-25" value="&lt;div style=&quot;&quot;&gt;&lt;pre style=&quot;font-size: 10px;&quot;&gt;&lt;font style=&quot;font-size: 10px;&quot; face=&quot;Helvetica&quot;&gt;ip: 15.192.40.86&lt;br/&gt;port:1539&lt;br/&gt;DB: APMOVDV1&lt;/font&gt;&lt;/pre&gt;&lt;/div&gt;" style="text;strokeColor=none;align=left;fillColor=none;html=1;verticalAlign=middle;whiteSpace=wrap;rounded=0;" parent="1" vertex="1">
          <mxGeometry x="170" y="515" width="85" height="70" as="geometry" />
        </mxCell>
        <mxCell id="BUUPZkUYhu16ZGh0TCuC-29" value="" style="strokeColor=#dddddd;shadow=1;strokeWidth=1;rounded=1;absoluteArcSize=1;arcSize=2;" parent="1" vertex="1">
          <mxGeometry x="60" y="98" width="195" height="44" as="geometry" />
        </mxCell>
        <mxCell id="BUUPZkUYhu16ZGh0TCuC-30" value="Frontend&lt;br&gt;NotificacionesManager" style="sketch=0;dashed=0;connectable=0;html=1;fillColor=#757575;strokeColor=none;shape=mxgraph.gcp2.frontend_platform_services;part=1;labelPosition=right;verticalLabelPosition=middle;align=left;verticalAlign=middle;spacingLeft=5;fontSize=12;" parent="BUUPZkUYhu16ZGh0TCuC-29" vertex="1">
          <mxGeometry y="0.5" width="32" height="32" relative="1" as="geometry">
            <mxPoint x="5" y="-16" as="offset" />
          </mxGeometry>
        </mxCell>
        <mxCell id="BUUPZkUYhu16ZGh0TCuC-32" value="" style="shape=image;html=1;verticalAlign=top;verticalLabelPosition=bottom;labelBackgroundColor=#ffffff;imageAspect=0;aspect=fixed;image=https://cdn2.iconfinder.com/data/icons/boxicons-logos/24/bxl-angular-128.png" parent="1" vertex="1">
          <mxGeometry x="220" y="70" width="58" height="58" as="geometry" />
        </mxCell>
        <mxCell id="BUUPZkUYhu16ZGh0TCuC-34" value="" style="endArrow=classic;html=1;rounded=0;entryX=0.5;entryY=0;entryDx=0;entryDy=0;exitX=0.59;exitY=1.023;exitDx=0;exitDy=0;exitPerimeter=0;" parent="1" source="BUUPZkUYhu16ZGh0TCuC-29" target="BUUPZkUYhu16ZGh0TCuC-4" edge="1">
          <mxGeometry width="50" height="50" relative="1" as="geometry">
            <mxPoint x="460" y="470" as="sourcePoint" />
            <mxPoint x="510" y="420" as="targetPoint" />
          </mxGeometry>
        </mxCell>
        <mxCell id="jDqhUDU2U0zfozlOYNZP-1" value="Autenticación Infra" style="points=[[0.5,0,0],[0.765,0.48,0],[0.99,0.98,0],[0.5,1,0],[0.01,0.98,0],[0.235,0.48,0]];verticalLabelPosition=bottom;sketch=0;html=1;verticalAlign=top;aspect=fixed;align=center;pointerEvents=1;shape=mxgraph.cisco19.ldap;fillColor=#005073;strokeColor=none;" vertex="1" parent="1">
          <mxGeometry x="590" y="820" width="50" height="42.5" as="geometry" />
        </mxCell>
        <mxCell id="jDqhUDU2U0zfozlOYNZP-10" style="edgeStyle=orthogonalEdgeStyle;rounded=0;orthogonalLoop=1;jettySize=auto;html=1;entryX=0;entryY=0.5;entryDx=0;entryDy=0;" edge="1" parent="1" source="jDqhUDU2U0zfozlOYNZP-3" target="jDqhUDU2U0zfozlOYNZP-5">
          <mxGeometry relative="1" as="geometry" />
        </mxCell>
        <mxCell id="jDqhUDU2U0zfozlOYNZP-15" value="Login" style="edgeLabel;html=1;align=center;verticalAlign=middle;resizable=0;points=[];" vertex="1" connectable="0" parent="jDqhUDU2U0zfozlOYNZP-10">
          <mxGeometry x="-0.1968" y="-2" relative="1" as="geometry">
            <mxPoint as="offset" />
          </mxGeometry>
        </mxCell>
        <mxCell id="jDqhUDU2U0zfozlOYNZP-3" value="" style="strokeColor=#dddddd;shadow=1;strokeWidth=1;rounded=1;absoluteArcSize=1;arcSize=2;" vertex="1" parent="1">
          <mxGeometry x="45" y="820" width="150" height="44" as="geometry" />
        </mxCell>
        <mxCell id="jDqhUDU2U0zfozlOYNZP-4" value="Frontend&lt;br&gt;Notificaciones" style="sketch=0;dashed=0;connectable=0;html=1;fillColor=#757575;strokeColor=none;shape=mxgraph.gcp2.frontend_platform_services;part=1;labelPosition=right;verticalLabelPosition=middle;align=left;verticalAlign=middle;spacingLeft=5;fontSize=12;" vertex="1" parent="jDqhUDU2U0zfozlOYNZP-3">
          <mxGeometry y="0.5" width="32" height="32" relative="1" as="geometry">
            <mxPoint x="5" y="-16" as="offset" />
          </mxGeometry>
        </mxCell>
        <mxCell id="jDqhUDU2U0zfozlOYNZP-11" style="edgeStyle=orthogonalEdgeStyle;rounded=0;orthogonalLoop=1;jettySize=auto;html=1;entryX=0.235;entryY=0.48;entryDx=0;entryDy=0;entryPerimeter=0;" edge="1" parent="1" source="jDqhUDU2U0zfozlOYNZP-5" target="jDqhUDU2U0zfozlOYNZP-1">
          <mxGeometry relative="1" as="geometry" />
        </mxCell>
        <mxCell id="jDqhUDU2U0zfozlOYNZP-13" style="edgeStyle=orthogonalEdgeStyle;rounded=0;orthogonalLoop=1;jettySize=auto;html=1;entryX=0.828;entryY=0.287;entryDx=0;entryDy=0;entryPerimeter=0;" edge="1" parent="1" source="jDqhUDU2U0zfozlOYNZP-5" target="jDqhUDU2U0zfozlOYNZP-6">
          <mxGeometry relative="1" as="geometry" />
        </mxCell>
        <mxCell id="jDqhUDU2U0zfozlOYNZP-5" value="Notificaciones" style="image;aspect=fixed;perimeter=ellipsePerimeter;html=1;align=center;shadow=0;dashed=0;fontColor=#4277BB;labelBackgroundColor=default;fontSize=12;spacingTop=3;image=img/lib/ibm/infrastructure/mobile_backend.svg;" vertex="1" parent="1">
          <mxGeometry x="350" y="811.25" width="60" height="60" as="geometry" />
        </mxCell>
        <mxCell id="jDqhUDU2U0zfozlOYNZP-6" value="PublicKey" style="sketch=0;aspect=fixed;pointerEvents=1;shadow=0;dashed=0;html=1;strokeColor=none;labelPosition=center;verticalLabelPosition=bottom;verticalAlign=top;align=center;fillColor=#00188D;shape=mxgraph.mscae.enterprise.key_permissions" vertex="1" parent="1">
          <mxGeometry x="360" y="990" width="26" height="50" as="geometry" />
        </mxCell>
        <mxCell id="jDqhUDU2U0zfozlOYNZP-12" style="edgeStyle=orthogonalEdgeStyle;rounded=0;orthogonalLoop=1;jettySize=auto;html=1;" edge="1" parent="1" source="jDqhUDU2U0zfozlOYNZP-8" target="jDqhUDU2U0zfozlOYNZP-5">
          <mxGeometry relative="1" as="geometry" />
        </mxCell>
        <mxCell id="jDqhUDU2U0zfozlOYNZP-16" value="Request" style="edgeLabel;html=1;align=center;verticalAlign=middle;resizable=0;points=[];" vertex="1" connectable="0" parent="jDqhUDU2U0zfozlOYNZP-12">
          <mxGeometry x="0.2272" relative="1" as="geometry">
            <mxPoint as="offset" />
          </mxGeometry>
        </mxCell>
        <mxCell id="jDqhUDU2U0zfozlOYNZP-8" value="Token" style="sketch=0;outlineConnect=0;fontColor=#232F3E;gradientColor=none;strokeColor=#232F3E;fillColor=#ffffff;dashed=0;verticalLabelPosition=bottom;verticalAlign=top;align=center;html=1;fontSize=12;fontStyle=0;aspect=fixed;shape=mxgraph.aws4.resourceIcon;resIcon=mxgraph.aws4.saml_token;" vertex="1" parent="1">
          <mxGeometry x="80" y="728" width="60" height="60" as="geometry" />
        </mxCell>
        <mxCell id="jDqhUDU2U0zfozlOYNZP-14" value="PrivateKey" style="image;aspect=fixed;html=1;points=[];align=center;fontSize=12;image=img/lib/azure2/security/Key_Vaults.svg;" vertex="1" parent="1">
          <mxGeometry x="590" y="736" width="52" height="52" as="geometry" />
        </mxCell>
      </root>
    </mxGraphModel>
  </diagram>
</mxfile>
